1.000000000000000056e-01,2.000000000000000164e-05
2.000000000000000111e-01,5.000000000000000240e-05
3.000000000000000444e-01,1.700000000000000122e-04
4.000000000000000222e-01,2.300000000000000070e-04
5.000000000000000000e-01,2.400000000000000061e-04
5.999999999999999778e-01,3.200000000000001888e-04
6.999999999999999556e-01,4.000000000000003986e-04
7.999999999999999334e-01,4.900000000000006347e-04
9.000000000000000222e-01,6.200000000000009757e-04
1.000000000000000000e+00,7.200000000000012380e-04
1.100000000000000089e+00,8.400000000000015527e-04
1.200000000000000178e+00,9.400000000000018150e-04
1.300000000000000044e+00,1.090000000000002208e-03
1.400000000000000133e+00,1.170000000000002418e-03
1.500000000000000000e+00,1.170000000000002418e-03
1.600000000000000089e+00,1.460000000000003179e-03
1.700000000000000178e+00,1.350000000000002890e-03
1.800000000000000044e+00,1.410000000000003048e-03
1.900000000000000133e+00,1.590000000000003520e-03
2.000000000000000000e+00,1.950000000000004464e-03
2.100000000000000089e+00,1.890000000000004307e-03
2.200000000000000178e+00,1.980000000000004326e-03
2.300000000000000266e+00,1.930000000000004412e-03
2.399999999999999911e+00,2.370000000000005349e-03
2.500000000000000000e+00,2.400000000000005428e-03
2.600000000000000089e+00,2.560000000000005847e-03
2.700000000000000178e+00,2.730000000000006293e-03
2.800000000000000266e+00,2.810000000000006503e-03
2.899999999999999911e+00,2.940000000000006844e-03
3.000000000000000000e+00,3.050000000000007132e-03
3.100000000000000089e+00,3.440000000000008155e-03
3.200000000000000178e+00,3.260000000000007683e-03
3.300000000000000266e+00,3.570000000000008496e-03
3.399999999999999911e+00,3.270000000000007710e-03
3.500000000000000000e+00,3.200000000000007526e-03
3.600000000000000089e+00,3.490000000000008287e-03
3.700000000000000178e+00,3.490000000000008287e-03
3.800000000000000266e+00,3.790000000000009073e-03
3.899999999999999911e+00,3.670000000000008759e-03
4.000000000000000000e+00,4.120000000000000398e-03
4.099999999999999645e+00,4.269999999999994286e-03
4.199999999999999289e+00,3.860000000000009257e-03
4.299999999999999822e+00,4.060000000000002843e-03
4.399999999999999467e+00,4.399999999999988989e-03
4.500000000000000000e+00,4.449999999999986952e-03
4.599999999999999645e+00,4.649999999999978803e-03
4.699999999999999289e+00,4.579999999999981655e-03
4.799999999999999822e+00,4.939999999999966987e-03
4.899999999999999467e+00,4.909999999999968209e-03
5.000000000000000000e+00,5.079999999999961283e-03
5.099999999999999645e+00,4.869999999999969839e-03
5.199999999999999289e+00,4.649999999999978803e-03
5.299999999999999822e+00,4.799999999999972691e-03
5.399999999999999467e+00,5.069999999999961690e-03
5.500000000000000000e+00,5.119999999999959653e-03
5.599999999999999645e+00,4.829999999999971469e-03
5.699999999999999289e+00,5.439999999999946614e-03
5.799999999999999822e+00,5.559999999999941725e-03
5.899999999999999467e+00,5.509999999999943762e-03
6.000000000000000000e+00,5.179999999999957208e-03
6.099999999999999645e+00,5.469999999999945392e-03
6.199999999999999289e+00,4.929999999999967394e-03
6.299999999999999822e+00,5.409999999999947837e-03
6.399999999999999467e+00,5.209999999999955986e-03
6.500000000000000000e+00,5.489999999999944577e-03
6.599999999999999645e+00,5.389999999999948652e-03
6.699999999999999289e+00,5.309999999999951911e-03
6.799999999999999822e+00,5.669999999999937243e-03
6.899999999999999467e+00,5.959999999999925427e-03
7.000000000000000000e+00,5.459999999999945799e-03
7.099999999999999645e+00,5.769999999999933168e-03
7.199999999999999289e+00,6.239999999999914018e-03
7.299999999999999822e+00,5.639999999999938465e-03
7.399999999999999467e+00,5.599999999999940095e-03
7.500000000000000000e+00,5.759999999999933576e-03
7.599999999999999645e+00,5.779999999999932761e-03
7.699999999999999289e+00,5.609999999999939688e-03
7.799999999999999822e+00,5.369999999999949467e-03
7.899999999999999467e+00,5.879999999999928686e-03
8.000000000000000000e+00,5.889999999999928279e-03
8.099999999999999645e+00,5.929999999999926649e-03
8.199999999999999289e+00,5.779999999999932761e-03
8.299999999999998934e+00,5.489999999999944577e-03
8.400000000000000355e+00,5.959999999999925427e-03
8.500000000000000000e+00,5.869999999999929094e-03
8.599999999999999645e+00,5.519999999999943355e-03
8.699999999999999289e+00,5.559999999999941725e-03
8.799999999999998934e+00,5.929999999999926649e-03
8.900000000000000355e+00,5.939999999999926242e-03
9.000000000000000000e+00,5.719999999999935206e-03
9.099999999999999645e+00,5.589999999999940503e-03
9.199999999999999289e+00,5.759999999999933576e-03
9.299999999999998934e+00,5.849999999999929909e-03
9.400000000000000355e+00,5.559999999999941725e-03
9.500000000000000000e+00,5.559999999999941725e-03
9.599999999999999645e+00,5.999999999999923797e-03
9.699999999999999289e+00,5.529999999999942947e-03
9.799999999999998934e+00,5.669999999999937243e-03
9.900000000000000355e+00,5.599999999999940095e-03
1.000000000000000000e+01,5.749999999999933983e-03
1.009999999999999964e+01,5.149999999999958430e-03
1.019999999999999929e+01,5.199999999999956393e-03
1.029999999999999893e+01,5.419999999999947429e-03
1.040000000000000036e+01,5.519999999999943355e-03
1.050000000000000000e+01,5.179999999999957208e-03
1.059999999999999964e+01,5.139999999999958838e-03
1.069999999999999929e+01,5.189999999999956801e-03
1.079999999999999893e+01,5.649999999999938058e-03
1.090000000000000036e+01,5.029999999999963320e-03
1.100000000000000000e+01,5.129999999999959245e-03
1.109999999999999964e+01,5.139999999999958838e-03
1.119999999999999929e+01,5.359999999999949874e-03
1.129999999999999893e+01,5.029999999999963320e-03
1.140000000000000036e+01,4.969999999999965765e-03
1.150000000000000000e+01,5.159999999999958023e-03
1.159999999999999964e+01,5.109999999999960060e-03
1.169999999999999929e+01,4.889999999999969024e-03
1.179999999999999893e+01,4.819999999999971876e-03
1.190000000000000036e+01,5.159999999999958023e-03
1.200000000000000000e+01,4.879999999999969432e-03
1.209999999999999964e+01,4.649999999999978803e-03
1.219999999999999929e+01,5.149999999999958430e-03
1.229999999999999893e+01,5.029999999999963320e-03
1.240000000000000036e+01,4.759999999999974321e-03
1.250000000000000000e+01,4.939999999999966987e-03
1.259999999999999964e+01,4.879999999999969432e-03
1.269999999999999929e+01,4.429999999999987767e-03
1.279999999999999893e+01,4.759999999999974321e-03
1.290000000000000036e+01,4.619999999999980025e-03
1.300000000000000000e+01,4.329999999999991842e-03
1.309999999999999964e+01,4.429999999999987767e-03
1.319999999999999929e+01,4.509999999999984507e-03
1.329999999999999893e+01,4.379999999999989804e-03
1.340000000000000036e+01,4.719999999999975951e-03
1.350000000000000000e+01,4.619999999999980025e-03
1.359999999999999964e+01,4.609999999999980433e-03
1.369999999999999929e+01,4.060000000000002843e-03
1.379999999999999893e+01,4.709999999999976358e-03
1.390000000000000036e+01,4.379999999999989804e-03
1.400000000000000000e+01,4.389999999999989397e-03
1.409999999999999964e+01,4.199999999999997138e-03
1.419999999999999929e+01,3.980000000000006102e-03
1.429999999999999893e+01,3.950000000000007325e-03
1.440000000000000036e+01,4.209999999999996731e-03
1.450000000000000000e+01,4.050000000000003250e-03
1.459999999999999964e+01,3.780000000000009047e-03
1.469999999999999929e+01,3.980000000000006102e-03
1.479999999999999893e+01,3.830000000000009178e-03
1.490000000000000036e+01,3.860000000000009257e-03
1.500000000000000000e+01,3.950000000000007325e-03
1.509999999999999964e+01,3.760000000000008995e-03
1.519999999999999929e+01,4.159999999999998768e-03
1.529999999999999893e+01,3.830000000000009178e-03
1.540000000000000036e+01,3.400000000000008051e-03
1.550000000000000000e+01,3.820000000000009152e-03
1.559999999999999964e+01,3.410000000000008077e-03
1.569999999999999929e+01,3.790000000000009073e-03
1.579999999999999893e+01,3.610000000000008601e-03
1.590000000000000036e+01,3.570000000000008496e-03
1.600000000000000000e+01,3.600000000000008575e-03
1.610000000000000142e+01,3.640000000000008680e-03
1.620000000000000284e+01,3.790000000000009073e-03
1.630000000000000071e+01,3.490000000000008287e-03
1.640000000000000213e+01,3.550000000000008444e-03
1.650000000000000000e+01,3.600000000000008575e-03
1.660000000000000142e+01,3.250000000000007657e-03
1.670000000000000284e+01,3.080000000000007211e-03
1.680000000000000071e+01,3.520000000000008365e-03
1.690000000000000213e+01,3.250000000000007657e-03
1.700000000000000000e+01,2.890000000000006713e-03
1.710000000000000142e+01,2.990000000000006975e-03
1.720000000000000284e+01,3.100000000000007264e-03
1.730000000000000071e+01,2.800000000000006477e-03
1.740000000000000213e+01,3.240000000000007631e-03
1.750000000000000000e+01,3.210000000000007552e-03
1.760000000000000142e+01,3.150000000000007395e-03
1.770000000000000284e+01,3.040000000000007106e-03
1.780000000000000071e+01,2.730000000000006293e-03
1.790000000000000213e+01,3.190000000000007500e-03
1.800000000000000000e+01,2.740000000000006319e-03
1.810000000000000142e+01,2.820000000000006529e-03
1.820000000000000284e+01,3.070000000000007185e-03
1.830000000000000071e+01,2.930000000000006818e-03
1.840000000000000213e+01,2.950000000000006870e-03
1.850000000000000000e+01,2.910000000000006765e-03
1.860000000000000142e+01,2.480000000000005637e-03
1.870000000000000284e+01,2.620000000000006005e-03
1.880000000000000071e+01,2.830000000000006555e-03
1.890000000000000213e+01,2.760000000000006372e-03
1.900000000000000000e+01,2.610000000000005978e-03
1.910000000000000142e+01,2.770000000000006398e-03
1.920000000000000284e+01,2.730000000000006293e-03
1.930000000000000071e+01,2.370000000000005349e-03
1.940000000000000213e+01,2.680000000000006162e-03
1.950000000000000000e+01,2.680000000000006162e-03
1.960000000000000142e+01,2.530000000000005769e-03
1.970000000000000284e+01,2.750000000000006346e-03
1.980000000000000071e+01,2.440000000000005533e-03
1.990000000000000213e+01,2.490000000000005664e-03
2.000000000000000000e+01,2.510000000000005716e-03
2.010000000000000142e+01,2.150000000000004772e-03
2.020000000000000284e+01,2.380000000000005375e-03
2.030000000000000071e+01,2.440000000000005533e-03
2.040000000000000213e+01,2.170000000000004824e-03
2.050000000000000000e+01,2.390000000000005401e-03
2.060000000000000142e+01,2.430000000000005506e-03
2.070000000000000284e+01,2.230000000000004982e-03
2.080000000000000071e+01,2.380000000000005375e-03
2.090000000000000213e+01,2.060000000000004536e-03
2.100000000000000000e+01,2.110000000000004667e-03
2.110000000000000142e+01,1.970000000000004300e-03
2.120000000000000284e+01,2.160000000000004798e-03
2.130000000000000071e+01,2.090000000000004615e-03
2.140000000000000213e+01,1.910000000000004359e-03
2.150000000000000000e+01,1.920000000000004385e-03
2.160000000000000142e+01,2.240000000000005008e-03
2.170000000000000284e+01,2.380000000000005375e-03
2.180000000000000071e+01,2.030000000000004457e-03
2.190000000000000213e+01,1.800000000000004071e-03
2.200000000000000000e+01,1.820000000000004123e-03
2.210000000000000142e+01,1.830000000000004149e-03
2.220000000000000284e+01,1.650000000000003677e-03
2.230000000000000071e+01,2.190000000000004877e-03
2.240000000000000213e+01,1.970000000000004300e-03
2.250000000000000000e+01,2.070000000000004562e-03
2.260000000000000142e+01,1.630000000000003625e-03
2.270000000000000284e+01,1.960000000000004274e-03
2.280000000000000071e+01,1.730000000000003887e-03
2.290000000000000213e+01,2.130000000000004719e-03
2.300000000000000000e+01,1.590000000000003520e-03
2.310000000000000142e+01,1.680000000000003756e-03
2.320000000000000284e+01,1.740000000000003913e-03
2.330000000000000071e+01,1.800000000000004071e-03
2.340000000000000213e+01,1.470000000000003205e-03
2.350000000000000000e+01,1.510000000000003310e-03
2.360000000000000142e+01,1.450000000000003153e-03
2.370000000000000284e+01,1.790000000000004044e-03
2.380000000000000071e+01,1.680000000000003756e-03
2.390000000000000213e+01,1.780000000000004018e-03
2.400000000000000000e+01,1.330000000000002838e-03
2.410000000000000142e+01,1.430000000000003100e-03
2.420000000000000284e+01,1.520000000000003336e-03
2.430000000000000071e+01,1.370000000000002943e-03
2.440000000000000213e+01,1.300000000000002759e-03
2.450000000000000000e+01,1.400000000000003022e-03
2.460000000000000142e+01,1.640000000000003651e-03
2.470000000000000284e+01,1.590000000000003520e-03
2.480000000000000071e+01,1.570000000000003467e-03
2.490000000000000213e+01,1.570000000000003467e-03
2.500000000000000000e+01,1.390000000000002995e-03
2.510000000000000142e+01,1.450000000000003153e-03
2.520000000000000284e+01,1.310000000000002785e-03
2.530000000000000071e+01,1.190000000000002471e-03
2.540000000000000213e+01,1.320000000000002812e-03
2.550000000000000000e+01,1.230000000000002576e-03
2.560000000000000142e+01,1.340000000000002864e-03
2.570000000000000284e+01,1.100000000000002235e-03
2.580000000000000071e+01,1.390000000000002995e-03
2.590000000000000213e+01,1.240000000000002602e-03
2.600000000000000000e+01,1.220000000000002549e-03
2.610000000000000142e+01,1.250000000000002628e-03
2.620000000000000284e+01,1.160000000000002392e-03
2.630000000000000071e+01,1.190000000000002471e-03
2.640000000000000213e+01,9.800000000000019199e-04
2.650000000000000000e+01,1.230000000000002576e-03
2.660000000000000142e+01,1.100000000000002235e-03
2.670000000000000284e+01,1.450000000000003153e-03
2.680000000000000071e+01,1.250000000000002628e-03
2.690000000000000213e+01,1.310000000000002785e-03
2.700000000000000000e+01,1.130000000000002313e-03
2.710000000000000142e+01,1.360000000000002917e-03
2.720000000000000284e+01,1.140000000000002340e-03
2.730000000000000071e+01,1.260000000000002654e-03
2.740000000000000213e+01,1.050000000000002104e-03
2.750000000000000000e+01,1.020000000000002025e-03
2.760000000000000142e+01,1.100000000000002235e-03
2.770000000000000284e+01,8.700000000000016314e-04
2.780000000000000071e+01,1.150000000000002366e-03
2.790000000000000213e+01,1.110000000000002261e-03
2.800000000000000000e+01,1.100000000000002235e-03
2.810000000000000142e+01,1.130000000000002313e-03
2.820000000000000284e+01,9.000000000000017101e-04
2.830000000000000071e+01,9.000000000000017101e-04
2.840000000000000213e+01,1.120000000000002287e-03
2.850000000000000000e+01,8.700000000000016314e-04
2.860000000000000142e+01,8.700000000000016314e-04
2.870000000000000284e+01,1.010000000000001999e-03
2.880000000000000071e+01,9.300000000000017888e-04
2.890000000000000213e+01,8.100000000000014740e-04
2.900000000000000000e+01,1.030000000000002051e-03
2.910000000000000142e+01,8.400000000000015527e-04
2.920000000000000284e+01,9.100000000000017363e-04
2.930000000000000071e+01,8.500000000000015789e-04
2.940000000000000213e+01,8.700000000000016314e-04
2.950000000000000000e+01,8.000000000000014478e-04
2.960000000000000142e+01,8.000000000000014478e-04
2.970000000000000284e+01,7.000000000000011855e-04
2.980000000000000071e+01,7.500000000000013167e-04
2.990000000000000213e+01,8.200000000000015003e-04
3.000000000000000000e+01,8.700000000000016314e-04
3.010000000000000142e+01,8.300000000000015265e-04
3.020000000000000284e+01,8.400000000000015527e-04
3.030000000000000071e+01,7.400000000000012904e-04
3.040000000000000213e+01,9.000000000000017101e-04
3.050000000000000000e+01,7.400000000000012904e-04
3.060000000000000142e+01,5.600000000000008183e-04
3.070000000000000284e+01,8.200000000000015003e-04
3.080000000000000071e+01,6.300000000000010019e-04
3.090000000000000213e+01,7.300000000000012642e-04
3.100000000000000000e+01,8.100000000000014740e-04
3.110000000000000142e+01,6.100000000000009494e-04
3.120000000000000284e+01,5.800000000000008708e-04
3.130000000000000071e+01,7.800000000000013953e-04
3.140000000000000213e+01,7.800000000000013953e-04
3.150000000000000000e+01,6.100000000000009494e-04
3.160000000000000142e+01,7.600000000000013429e-04
3.170000000000000284e+01,6.500000000000010544e-04
3.180000000000000071e+01,6.500000000000010544e-04
3.190000000000000213e+01,6.100000000000009494e-04
3.200000000000000000e+01,6.600000000000010806e-04
3.210000000000000142e+01,7.600000000000013429e-04
3.220000000000000284e+01,6.600000000000010806e-04
3.230000000000000426e+01,7.100000000000012117e-04
3.239999999999999858e+01,6.000000000000009232e-04
3.250000000000000000e+01,6.100000000000009494e-04
3.260000000000000142e+01,6.100000000000009494e-04
3.270000000000000284e+01,5.900000000000008970e-04
3.280000000000000426e+01,6.800000000000011331e-04
3.289999999999999858e+01,4.400000000000005036e-04
3.300000000000000000e+01,4.900000000000006347e-04
3.310000000000000142e+01,4.700000000000005822e-04
3.320000000000000284e+01,4.000000000000003986e-04
3.330000000000000426e+01,4.700000000000005822e-04
3.339999999999999858e+01,5.500000000000007921e-04
3.350000000000000000e+01,5.100000000000006872e-04
3.360000000000000142e+01,5.600000000000008183e-04
3.370000000000000284e+01,3.600000000000002937e-04
3.380000000000000426e+01,5.000000000000006609e-04
3.389999999999999858e+01,4.700000000000005822e-04
3.400000000000000000e+01,5.300000000000007396e-04
3.410000000000000142e+01,5.100000000000006872e-04
3.420000000000000284e+01,4.100000000000004249e-04
3.430000000000000426e+01,5.000000000000006609e-04
3.439999999999999858e+01,5.300000000000007396e-04
3.450000000000000000e+01,4.800000000000006085e-04
3.460000000000000142e+01,4.300000000000004773e-04
3.470000000000000284e+01,4.500000000000005298e-04
3.480000000000000426e+01,3.800000000000003462e-04
3.489999999999999858e+01,5.700000000000008445e-04
3.500000000000000000e+01,3.700000000000003200e-04
3.510000000000000142e+01,5.200000000000007134e-04
3.520000000000000284e+01,4.700000000000005822e-04
3.530000000000000426e+01,4.500000000000005298e-04
3.539999999999999858e+01,3.400000000000002413e-04
3.550000000000000000e+01,4.800000000000006085e-04
3.560000000000000142e+01,4.500000000000005298e-04
3.570000000000000284e+01,3.700000000000003200e-04
3.580000000000000426e+01,4.600000000000005560e-04
3.589999999999999858e+01,3.900000000000003724e-04
3.600000000000000000e+01,3.600000000000002937e-04
3.610000000000000142e+01,4.300000000000004773e-04
3.620000000000000284e+01,4.300000000000004773e-04
3.630000000000000426e+01,4.600000000000005560e-04
3.639999999999999858e+01,3.500000000000002675e-04
3.650000000000000000e+01,3.700000000000003200e-04
3.660000000000000142e+01,3.600000000000002937e-04
3.670000000000000284e+01,3.900000000000003724e-04
3.680000000000000426e+01,3.600000000000002937e-04
3.689999999999999858e+01,3.100000000000001626e-04
3.700000000000000000e+01,3.300000000000002150e-04
3.710000000000000142e+01,2.900000000000001101e-04
3.720000000000000284e+01,2.500000000000000052e-04
3.730000000000000426e+01,3.100000000000001626e-04
3.739999999999999858e+01,2.600000000000000314e-04
3.750000000000000000e+01,2.400000000000000061e-04
3.760000000000000142e+01,3.200000000000001888e-04
3.770000000000000284e+01,3.000000000000001363e-04
3.780000000000000426e+01,3.400000000000002413e-04
3.789999999999999858e+01,3.000000000000001363e-04
3.800000000000000000e+01,3.300000000000002150e-04
3.810000000000000142e+01,2.800000000000000839e-04
3.820000000000000284e+01,2.800000000000000839e-04
3.830000000000000426e+01,3.200000000000001888e-04
3.839999999999999858e+01,3.500000000000002675e-04
3.850000000000000000e+01,3.100000000000001626e-04
3.860000000000000142e+01,2.100000000000000087e-04
3.870000000000000284e+01,2.300000000000000070e-04
3.880000000000000426e+01,2.500000000000000052e-04
3.889999999999999858e+01,3.000000000000001363e-04
3.900000000000000000e+01,1.600000000000000131e-04
3.910000000000000142e+01,2.800000000000000839e-04
3.920000000000000284e+01,2.300000000000000070e-04
3.930000000000000426e+01,4.100000000000004249e-04
3.939999999999999858e+01,3.700000000000003200e-04
3.950000000000000000e+01,2.100000000000000087e-04
3.960000000000000142e+01,1.900000000000000105e-04
3.970000000000000284e+01,2.300000000000000070e-04
3.980000000000000426e+01,3.100000000000001626e-04
3.989999999999999858e+01,2.900000000000001101e-04
4.000000000000000000e+01,2.400000000000000061e-04
4.010000000000000142e+01,2.000000000000000096e-04
4.020000000000000284e+01,3.100000000000001626e-04
4.030000000000000426e+01,2.300000000000000070e-04
4.039999999999999858e+01,2.700000000000000577e-04
4.050000000000000000e+01,1.500000000000000140e-04
4.060000000000000142e+01,2.000000000000000096e-04
4.070000000000000284e+01,2.100000000000000087e-04
4.080000000000000426e+01,1.800000000000000113e-04
4.089999999999999858e+01,1.900000000000000105e-04
4.100000000000000000e+01,2.000000000000000096e-04
4.110000000000000142e+01,2.000000000000000096e-04
4.120000000000000284e+01,2.400000000000000061e-04
4.130000000000000426e+01,2.100000000000000087e-04
4.139999999999999858e+01,1.900000000000000105e-04
4.150000000000000000e+01,2.300000000000000070e-04
4.160000000000000142e+01,1.600000000000000131e-04
4.170000000000000284e+01,2.200000000000000078e-04
4.180000000000000426e+01,2.400000000000000061e-04
4.189999999999999858e+01,1.400000000000000148e-04
4.200000000000000000e+01,1.700000000000000122e-04
4.210000000000000142e+01,2.300000000000000070e-04
4.220000000000000284e+01,1.400000000000000148e-04
4.230000000000000426e+01,2.000000000000000096e-04
4.239999999999999858e+01,1.700000000000000122e-04
4.250000000000000000e+01,1.300000000000000157e-04
4.260000000000000142e+01,1.400000000000000148e-04
4.270000000000000284e+01,1.200000000000000030e-04
4.280000000000000426e+01,2.100000000000000087e-04
4.289999999999999858e+01,1.600000000000000131e-04
4.300000000000000000e+01,1.800000000000000113e-04
4.310000000000000142e+01,1.700000000000000122e-04
4.320000000000000284e+01,1.500000000000000140e-04
4.330000000000000426e+01,1.300000000000000157e-04
4.339999999999999858e+01,1.600000000000000131e-04
4.350000000000000000e+01,1.800000000000000113e-04
4.360000000000000142e+01,1.900000000000000105e-04
4.370000000000000284e+01,1.100000000000000039e-04
4.380000000000000426e+01,1.200000000000000030e-04
4.389999999999999858e+01,8.000000000000000654e-05
4.400000000000000000e+01,1.600000000000000131e-04
4.410000000000000142e+01,1.400000000000000148e-04
4.420000000000000284e+01,1.200000000000000030e-04
4.430000000000000426e+01,1.300000000000000157e-04
4.439999999999999858e+01,1.000000000000000048e-04
4.450000000000000000e+01,1.600000000000000131e-04
4.460000000000000142e+01,1.700000000000000122e-04
4.470000000000000284e+01,4.000000000000000327e-05
4.480000000000000426e+01,7.000000000000000742e-05
4.489999999999999858e+01,9.000000000000000567e-05
4.500000000000000000e+01,1.400000000000000148e-04
4.510000000000000142e+01,1.600000000000000131e-04
4.520000000000000284e+01,1.300000000000000157e-04
4.530000000000000426e+01,1.900000000000000105e-04
4.539999999999999858e+01,9.000000000000000567e-05
4.550000000000000000e+01,9.000000000000000567e-05
4.560000000000000142e+01,1.500000000000000140e-04
4.570000000000000284e+01,1.100000000000000039e-04
4.580000000000000426e+01,8.000000000000000654e-05
4.589999999999999858e+01,1.100000000000000039e-04
4.600000000000000000e+01,1.500000000000000140e-04
4.610000000000000142e+01,6.000000000000000152e-05
4.620000000000000284e+01,1.300000000000000157e-04
4.630000000000000426e+01,7.000000000000000742e-05
4.639999999999999858e+01,1.100000000000000039e-04
4.650000000000000000e+01,1.200000000000000030e-04
4.660000000000000142e+01,8.000000000000000654e-05
4.670000000000000284e+01,6.000000000000000152e-05
4.680000000000000426e+01,1.000000000000000048e-04
4.689999999999999858e+01,2.000000000000000096e-04
4.700000000000000000e+01,1.000000000000000048e-04
4.710000000000000142e+01,4.000000000000000327e-05
4.720000000000000284e+01,9.000000000000000567e-05
4.730000000000000426e+01,8.000000000000000654e-05
4.739999999999999858e+01,1.100000000000000039e-04
4.750000000000000000e+01,9.000000000000000567e-05
4.760000000000000142e+01,7.000000000000000742e-05
4.770000000000000284e+01,6.000000000000000152e-05
4.780000000000000426e+01,9.000000000000000567e-05
4.789999999999999858e+01,9.000000000000000567e-05
4.800000000000000000e+01,7.000000000000000742e-05
4.810000000000000142e+01,1.100000000000000039e-04
4.820000000000000284e+01,1.300000000000000157e-04
4.830000000000000426e+01,1.200000000000000030e-04
4.839999999999999858e+01,1.000000000000000048e-04
4.850000000000000000e+01,5.000000000000000240e-05
4.860000000000000142e+01,1.300000000000000157e-04
4.870000000000000284e+01,8.000000000000000654e-05
4.880000000000000426e+01,1.100000000000000039e-04
4.889999999999999858e+01,9.000000000000000567e-05
4.900000000000000000e+01,1.300000000000000157e-04
4.910000000000000142e+01,1.000000000000000048e-04
4.920000000000000284e+01,4.000000000000000327e-05
4.930000000000000426e+01,3.000000000000000415e-05
4.939999999999999858e+01,5.000000000000000240e-05
4.950000000000000000e+01,6.000000000000000152e-05
4.960000000000000142e+01,4.000000000000000327e-05
4.970000000000000284e+01,6.000000000000000152e-05
4.980000000000000426e+01,8.000000000000000654e-05
4.989999999999999858e+01,8.000000000000000654e-05
5.000000000000000000e+01,8.000000000000000654e-05
5.010000000000000142e+01,7.000000000000000742e-05
5.020000000000000284e+01,6.000000000000000152e-05
5.030000000000000426e+01,1.100000000000000039e-04
5.039999999999999858e+01,1.100000000000000039e-04
5.050000000000000000e+01,6.000000000000000152e-05
5.060000000000000142e+01,4.000000000000000327e-05
5.070000000000000284e+01,7.000000000000000742e-05
5.080000000000000426e+01,4.000000000000000327e-05
5.089999999999999858e+01,6.000000000000000152e-05
5.100000000000000000e+01,1.000000000000000048e-04
5.110000000000000142e+01,3.000000000000000415e-05
5.120000000000000284e+01,2.000000000000000164e-05
5.130000000000000426e+01,3.000000000000000415e-05
5.139999999999999858e+01,6.000000000000000152e-05
5.150000000000000000e+01,4.000000000000000327e-05
5.160000000000000142e+01,7.000000000000000742e-05
5.170000000000000284e+01,4.000000000000000327e-05
5.180000000000000426e+01,4.000000000000000327e-05
5.189999999999999858e+01,3.000000000000000415e-05
5.200000000000000000e+01,5.000000000000000240e-05
5.210000000000000142e+01,4.000000000000000327e-05
5.220000000000000284e+01,4.000000000000000327e-05
5.230000000000000426e+01,4.000000000000000327e-05
5.239999999999999858e+01,3.000000000000000415e-05
5.250000000000000000e+01,3.000000000000000415e-05
5.260000000000000142e+01,7.000000000000000742e-05
5.270000000000000284e+01,5.000000000000000240e-05
5.280000000000000426e+01,3.000000000000000415e-05
5.289999999999999858e+01,4.000000000000000327e-05
5.300000000000000000e+01,1.000000000000000082e-05
5.310000000000000142e+01,8.000000000000000654e-05
5.320000000000000284e+01,7.000000000000000742e-05
5.330000000000000426e+01,4.000000000000000327e-05
5.339999999999999858e+01,4.000000000000000327e-05
5.350000000000000000e+01,8.000000000000000654e-05
5.360000000000000142e+01,1.000000000000000082e-05
5.370000000000000284e+01,6.000000000000000152e-05
5.380000000000000426e+01,2.000000000000000164e-05
5.389999999999999858e+01,3.000000000000000415e-05
5.400000000000000000e+01,4.000000000000000327e-05
5.410000000000000142e+01,3.000000000000000415e-05
5.420000000000000284e+01,7.000000000000000742e-05
5.430000000000000426e+01,5.000000000000000240e-05
5.439999999999999858e+01,3.000000000000000415e-05
5.450000000000000000e+01,6.000000000000000152e-05
5.460000000000000142e+01,5.000000000000000240e-05
5.470000000000000284e+01,5.000000000000000240e-05
5.480000000000000426e+01,6.000000000000000152e-05
5.489999999999999858e+01,4.000000000000000327e-05
5.500000000000000000e+01,1.000000000000000082e-05
5.510000000000000142e+01,5.000000000000000240e-05
5.520000000000000284e+01,5.000000000000000240e-05
5.530000000000000426e+01,5.000000000000000240e-05
5.539999999999999858e+01,0.000000000000000000e+00
5.550000000000000000e+01,4.000000000000000327e-05
5.560000000000000142e+01,3.000000000000000415e-05
5.570000000000000284e+01,5.000000000000000240e-05
5.580000000000000426e+01,2.000000000000000164e-05
5.589999999999999858e+01,7.000000000000000742e-05
5.600000000000000000e+01,2.000000000000000164e-05
5.610000000000000142e+01,3.000000000000000415e-05
5.620000000000000284e+01,0.000000000000000000e+00
5.630000000000000426e+01,1.000000000000000082e-05
5.639999999999999858e+01,6.000000000000000152e-05
5.650000000000000000e+01,1.000000000000000082e-05
5.660000000000000142e+01,4.000000000000000327e-05
5.670000000000000284e+01,4.000000000000000327e-05
5.680000000000000426e+01,2.000000000000000164e-05
5.689999999999999858e+01,3.000000000000000415e-05
5.700000000000000000e+01,3.000000000000000415e-05
5.710000000000000142e+01,2.000000000000000164e-05
5.720000000000000284e+01,2.000000000000000164e-05
5.730000000000000426e+01,3.000000000000000415e-05
5.739999999999999858e+01,0.000000000000000000e+00
5.750000000000000000e+01,1.000000000000000082e-05
5.760000000000000142e+01,3.000000000000000415e-05
5.770000000000000284e+01,1.000000000000000082e-05
5.780000000000000426e+01,2.000000000000000164e-05
5.789999999999999858e+01,2.000000000000000164e-05
5.800000000000000000e+01,3.000000000000000415e-05
5.810000000000000142e+01,3.000000000000000415e-05
5.820000000000000284e+01,4.000000000000000327e-05
5.830000000000000426e+01,2.000000000000000164e-05
5.839999999999999858e+01,0.000000000000000000e+00
5.850000000000000000e+01,2.000000000000000164e-05
5.860000000000000142e+01,2.000000000000000164e-05
5.870000000000000284e+01,2.000000000000000164e-05
5.880000000000000426e+01,1.000000000000000082e-05
5.889999999999999858e+01,2.000000000000000164e-05
5.900000000000000000e+01,0.000000000000000000e+00
5.910000000000000142e+01,1.000000000000000082e-05
5.920000000000000284e+01,0.000000000000000000e+00
5.930000000000000426e+01,1.000000000000000082e-05
5.939999999999999858e+01,2.000000000000000164e-05
5.950000000000000000e+01,3.000000000000000415e-05
5.960000000000000142e+01,0.000000000000000000e+00
5.970000000000000284e+01,2.000000000000000164e-05
5.980000000000000426e+01,0.000000000000000000e+00
5.989999999999999858e+01,1.000000000000000082e-05
6.000000000000000000e+01,2.000000000000000164e-05
6.010000000000000142e+01,1.000000000000000082e-05
6.020000000000000284e+01,2.000000000000000164e-05
6.030000000000000426e+01,1.000000000000000082e-05
6.039999999999999858e+01,2.000000000000000164e-05
6.050000000000000000e+01,0.000000000000000000e+00
6.060000000000000142e+01,0.000000000000000000e+00
6.070000000000000284e+01,2.000000000000000164e-05
6.080000000000000426e+01,0.000000000000000000e+00
6.089999999999999858e+01,1.000000000000000082e-05
6.100000000000000000e+01,1.000000000000000082e-05
6.110000000000000142e+01,1.000000000000000082e-05
6.120000000000000284e+01,1.000000000000000082e-05
6.130000000000000426e+01,1.000000000000000082e-05
6.139999999999999858e+01,1.000000000000000082e-05
6.150000000000000000e+01,1.000000000000000082e-05
6.160000000000000142e+01,1.000000000000000082e-05
6.170000000000000284e+01,3.000000000000000415e-05
6.180000000000000426e+01,1.000000000000000082e-05
6.189999999999999858e+01,2.000000000000000164e-05
6.200000000000000000e+01,3.000000000000000415e-05
6.210000000000000142e+01,0.000000000000000000e+00
6.220000000000000284e+01,1.000000000000000082e-05
6.230000000000000426e+01,1.000000000000000082e-05
6.239999999999999858e+01,2.000000000000000164e-05
6.250000000000000000e+01,3.000000000000000415e-05
6.260000000000000142e+01,2.000000000000000164e-05
6.270000000000000284e+01,2.000000000000000164e-05
6.280000000000000426e+01,1.000000000000000082e-05
6.289999999999999858e+01,0.000000000000000000e+00
6.300000000000000000e+01,1.000000000000000082e-05
6.310000000000000142e+01,0.000000000000000000e+00
6.320000000000000284e+01,0.000000000000000000e+00
6.330000000000000426e+01,3.000000000000000415e-05
6.339999999999999858e+01,2.000000000000000164e-05
6.350000000000000000e+01,1.000000000000000082e-05
6.360000000000000142e+01,0.000000000000000000e+00
6.370000000000000284e+01,1.000000000000000082e-05
6.380000000000000426e+01,0.000000000000000000e+00
6.389999999999999858e+01,3.000000000000000415e-05
6.400000000000000000e+01,0.000000000000000000e+00
6.409999999999999432e+01,0.000000000000000000e+00
6.419999999999998863e+01,2.000000000000000164e-05
6.429999999999999716e+01,0.000000000000000000e+00
6.439999999999999147e+01,0.000000000000000000e+00
6.450000000000000000e+01,1.000000000000000082e-05
6.459999999999999432e+01,0.000000000000000000e+00
6.469999999999998863e+01,3.000000000000000415e-05
6.479999999999999716e+01,0.000000000000000000e+00
6.489999999999999147e+01,2.000000000000000164e-05
6.500000000000000000e+01,0.000000000000000000e+00
6.509999999999999432e+01,3.000000000000000415e-05
6.519999999999998863e+01,1.000000000000000082e-05
6.529999999999999716e+01,1.000000000000000082e-05
6.539999999999999147e+01,0.000000000000000000e+00
6.550000000000000000e+01,0.000000000000000000e+00
6.559999999999999432e+01,0.000000000000000000e+00
6.569999999999998863e+01,0.000000000000000000e+00
6.579999999999999716e+01,1.000000000000000082e-05
6.589999999999999147e+01,0.000000000000000000e+00
6.600000000000000000e+01,2.000000000000000164e-05
6.609999999999999432e+01,0.000000000000000000e+00
6.619999999999998863e+01,1.000000000000000082e-05
6.629999999999999716e+01,0.000000000000000000e+00
6.639999999999999147e+01,0.000000000000000000e+00
6.650000000000000000e+01,1.000000000000000082e-05
6.659999999999999432e+01,1.000000000000000082e-05
6.669999999999998863e+01,1.000000000000000082e-05
6.679999999999999716e+01,0.000000000000000000e+00
6.689999999999999147e+01,0.000000000000000000e+00
6.700000000000000000e+01,0.000000000000000000e+00
6.709999999999999432e+01,2.000000000000000164e-05
6.719999999999998863e+01,0.000000000000000000e+00
6.729999999999999716e+01,0.000000000000000000e+00
6.739999999999999147e+01,0.000000000000000000e+00
6.750000000000000000e+01,0.000000000000000000e+00
6.759999999999999432e+01,1.000000000000000082e-05
6.769999999999998863e+01,0.000000000000000000e+00
6.779999999999999716e+01,0.000000000000000000e+00
6.789999999999999147e+01,1.000000000000000082e-05
6.800000000000000000e+01,0.000000000000000000e+00
6.809999999999999432e+01,1.000000000000000082e-05
6.819999999999998863e+01,1.000000000000000082e-05
6.829999999999999716e+01,0.000000000000000000e+00
6.839999999999999147e+01,2.000000000000000164e-05
6.850000000000000000e+01,0.000000000000000000e+00
6.859999999999999432e+01,0.000000000000000000e+00
6.869999999999998863e+01,1.000000000000000082e-05
6.879999999999999716e+01,2.000000000000000164e-05
6.889999999999999147e+01,0.000000000000000000e+00
6.900000000000000000e+01,0.000000000000000000e+00
6.909999999999999432e+01,0.000000000000000000e+00
6.919999999999998863e+01,0.000000000000000000e+00
6.929999999999999716e+01,0.000000000000000000e+00
6.939999999999999147e+01,0.000000000000000000e+00
6.950000000000000000e+01,0.000000000000000000e+00
6.959999999999999432e+01,1.000000000000000082e-05
6.969999999999998863e+01,2.000000000000000164e-05
6.979999999999999716e+01,0.000000000000000000e+00
6.989999999999999147e+01,0.000000000000000000e+00
7.000000000000000000e+01,0.000000000000000000e+00
7.009999999999999432e+01,0.000000000000000000e+00
7.019999999999998863e+01,0.000000000000000000e+00
7.029999999999999716e+01,0.000000000000000000e+00
7.039999999999999147e+01,1.000000000000000082e-05
7.050000000000000000e+01,0.000000000000000000e+00
7.059999999999999432e+01,0.000000000000000000e+00
7.069999999999998863e+01,0.000000000000000000e+00
7.079999999999999716e+01,0.000000000000000000e+00
7.089999999999999147e+01,0.000000000000000000e+00
7.100000000000000000e+01,0.000000000000000000e+00
7.109999999999999432e+01,0.000000000000000000e+00
7.119999999999998863e+01,0.000000000000000000e+00
7.129999999999999716e+01,2.000000000000000164e-05
7.139999999999999147e+01,0.000000000000000000e+00
7.150000000000000000e+01,0.000000000000000000e+00
7.159999999999999432e+01,0.000000000000000000e+00
7.169999999999998863e+01,0.000000000000000000e+00
7.179999999999999716e+01,0.000000000000000000e+00
7.189999999999999147e+01,0.000000000000000000e+00
7.200000000000000000e+01,2.000000000000000164e-05
7.209999999999999432e+01,0.000000000000000000e+00
7.219999999999998863e+01,0.000000000000000000e+00
7.229999999999999716e+01,0.000000000000000000e+00
7.239999999999999147e+01,1.000000000000000082e-05
7.250000000000000000e+01,1.000000000000000082e-05
7.259999999999999432e+01,0.000000000000000000e+00
7.269999999999998863e+01,1.000000000000000082e-05
7.279999999999999716e+01,0.000000000000000000e+00
7.289999999999999147e+01,0.000000000000000000e+00
7.300000000000000000e+01,0.000000000000000000e+00
7.309999999999999432e+01,0.000000000000000000e+00
7.319999999999998863e+01,0.000000000000000000e+00
7.329999999999999716e+01,0.000000000000000000e+00
7.339999999999999147e+01,0.000000000000000000e+00
7.350000000000000000e+01,0.000000000000000000e+00
7.359999999999999432e+01,0.000000000000000000e+00
7.369999999999998863e+01,0.000000000000000000e+00
7.379999999999999716e+01,0.000000000000000000e+00
7.389999999999999147e+01,0.000000000000000000e+00
7.400000000000000000e+01,0.000000000000000000e+00
7.409999999999999432e+01,1.000000000000000082e-05
7.419999999999998863e+01,0.000000000000000000e+00
7.429999999999999716e+01,0.000000000000000000e+00
7.439999999999999147e+01,0.000000000000000000e+00
7.450000000000000000e+01,1.000000000000000082e-05
7.459999999999999432e+01,0.000000000000000000e+00
7.469999999999998863e+01,0.000000000000000000e+00
7.479999999999999716e+01,0.000000000000000000e+00
7.489999999999999147e+01,0.000000000000000000e+00
7.500000000000000000e+01,0.000000000000000000e+00
7.509999999999999432e+01,0.000000000000000000e+00
7.519999999999998863e+01,0.000000000000000000e+00
7.529999999999999716e+01,1.000000000000000082e-05
7.539999999999999147e+01,0.000000000000000000e+00
7.550000000000000000e+01,0.000000000000000000e+00
7.559999999999999432e+01,0.000000000000000000e+00
7.569999999999998863e+01,0.000000000000000000e+00
7.579999999999999716e+01,0.000000000000000000e+00
7.589999999999999147e+01,0.000000000000000000e+00
7.600000000000000000e+01,0.000000000000000000e+00
7.609999999999999432e+01,1.000000000000000082e-05
7.619999999999998863e+01,0.000000000000000000e+00
7.629999999999999716e+01,0.000000000000000000e+00
7.639999999999999147e+01,0.000000000000000000e+00
7.650000000000000000e+01,0.000000000000000000e+00
7.659999999999999432e+01,0.000000000000000000e+00
7.669999999999998863e+01,0.000000000000000000e+00
7.679999999999999716e+01,0.000000000000000000e+00
7.689999999999999147e+01,0.000000000000000000e+00
7.700000000000000000e+01,0.000000000000000000e+00
7.709999999999999432e+01,0.000000000000000000e+00
7.719999999999998863e+01,0.000000000000000000e+00
7.729999999999999716e+01,0.000000000000000000e+00
7.739999999999999147e+01,0.000000000000000000e+00
7.750000000000000000e+01,0.000000000000000000e+00
7.759999999999999432e+01,0.000000000000000000e+00
7.769999999999998863e+01,0.000000000000000000e+00
7.779999999999999716e+01,0.000000000000000000e+00
7.789999999999999147e+01,0.000000000000000000e+00
7.800000000000000000e+01,0.000000000000000000e+00
7.809999999999999432e+01,0.000000000000000000e+00
7.819999999999998863e+01,1.000000000000000082e-05
7.829999999999999716e+01,0.000000000000000000e+00
7.839999999999999147e+01,0.000000000000000000e+00
7.850000000000000000e+01,0.000000000000000000e+00
7.859999999999999432e+01,0.000000000000000000e+00
7.869999999999998863e+01,0.000000000000000000e+00
7.879999999999999716e+01,0.000000000000000000e+00
7.889999999999999147e+01,0.000000000000000000e+00
7.900000000000000000e+01,0.000000000000000000e+00
7.909999999999999432e+01,1.000000000000000082e-05
7.919999999999998863e+01,0.000000000000000000e+00
7.929999999999999716e+01,0.000000000000000000e+00
7.939999999999999147e+01,0.000000000000000000e+00
7.950000000000000000e+01,0.000000000000000000e+00
7.959999999999999432e+01,0.000000000000000000e+00
7.969999999999998863e+01,0.000000000000000000e+00
7.979999999999999716e+01,0.000000000000000000e+00
7.989999999999999147e+01,0.000000000000000000e+00
8.000000000000000000e+01,0.000000000000000000e+00
8.009999999999999432e+01,0.000000000000000000e+00
8.019999999999998863e+01,0.000000000000000000e+00
8.029999999999999716e+01,0.000000000000000000e+00
8.039999999999999147e+01,1.000000000000000082e-05
8.050000000000000000e+01,0.000000000000000000e+00
8.059999999999999432e+01,0.000000000000000000e+00
8.069999999999998863e+01,0.000000000000000000e+00
8.079999999999999716e+01,0.000000000000000000e+00
8.089999999999999147e+01,0.000000000000000000e+00
8.100000000000000000e+01,0.000000000000000000e+00
8.109999999999999432e+01,0.000000000000000000e+00
8.119999999999998863e+01,0.000000000000000000e+00
8.129999999999999716e+01,0.000000000000000000e+00
8.139999999999999147e+01,0.000000000000000000e+00
8.150000000000000000e+01,0.000000000000000000e+00
8.159999999999999432e+01,0.000000000000000000e+00
8.169999999999998863e+01,0.000000000000000000e+00
8.179999999999999716e+01,0.000000000000000000e+00
8.189999999999999147e+01,0.000000000000000000e+00
8.200000000000000000e+01,0.000000000000000000e+00
8.209999999999999432e+01,0.000000000000000000e+00
8.219999999999998863e+01,0.000000000000000000e+00
8.229999999999999716e+01,0.000000000000000000e+00
8.239999999999999147e+01,0.000000000000000000e+00
8.250000000000000000e+01,0.000000000000000000e+00
8.259999999999999432e+01,0.000000000000000000e+00
8.269999999999998863e+01,0.000000000000000000e+00
8.279999999999999716e+01,0.000000000000000000e+00
8.289999999999999147e+01,0.000000000000000000e+00
8.300000000000000000e+01,0.000000000000000000e+00
8.309999999999999432e+01,0.000000000000000000e+00
8.319999999999998863e+01,0.000000000000000000e+00
8.329999999999999716e+01,0.000000000000000000e+00
8.339999999999999147e+01,1.000000000000000082e-05
8.350000000000000000e+01,0.000000000000000000e+00
8.359999999999999432e+01,1.000000000000000082e-05
8.369999999999998863e+01,0.000000000000000000e+00
8.379999999999999716e+01,0.000000000000000000e+00
8.389999999999999147e+01,0.000000000000000000e+00
8.400000000000000000e+01,0.000000000000000000e+00
8.409999999999999432e+01,0.000000000000000000e+00
8.419999999999998863e+01,0.000000000000000000e+00
8.429999999999999716e+01,0.000000000000000000e+00
8.439999999999999147e+01,0.000000000000000000e+00
8.450000000000000000e+01,0.000000000000000000e+00
8.459999999999999432e+01,0.000000000000000000e+00
8.469999999999998863e+01,1.000000000000000082e-05
8.479999999999999716e+01,0.000000000000000000e+00
8.489999999999999147e+01,0.000000000000000000e+00
8.500000000000000000e+01,0.000000000000000000e+00
8.509999999999999432e+01,0.000000000000000000e+00
8.519999999999998863e+01,0.000000000000000000e+00
8.529999999999999716e+01,0.000000000000000000e+00
8.539999999999999147e+01,0.000000000000000000e+00
8.550000000000000000e+01,0.000000000000000000e+00
8.559999999999999432e+01,0.000000000000000000e+00
8.569999999999998863e+01,1.000000000000000082e-05
8.579999999999999716e+01,0.000000000000000000e+00
8.589999999999999147e+01,0.000000000000000000e+00
8.600000000000000000e+01,0.000000000000000000e+00
8.609999999999999432e+01,0.000000000000000000e+00
8.619999999999998863e+01,0.000000000000000000e+00
8.629999999999999716e+01,0.000000000000000000e+00
8.639999999999999147e+01,0.000000000000000000e+00
8.650000000000000000e+01,0.000000000000000000e+00
8.659999999999999432e+01,0.000000000000000000e+00
8.669999999999998863e+01,0.000000000000000000e+00
8.679999999999999716e+01,0.000000000000000000e+00
8.689999999999999147e+01,0.000000000000000000e+00
8.700000000000000000e+01,0.000000000000000000e+00
8.709999999999999432e+01,0.000000000000000000e+00
8.719999999999998863e+01,0.000000000000000000e+00
8.729999999999999716e+01,0.000000000000000000e+00
8.739999999999999147e+01,0.000000000000000000e+00
8.750000000000000000e+01,0.000000000000000000e+00
8.759999999999999432e+01,1.000000000000000082e-05
8.769999999999998863e+01,0.000000000000000000e+00
8.779999999999999716e+01,0.000000000000000000e+00
8.789999999999999147e+01,0.000000000000000000e+00
8.800000000000000000e+01,0.000000000000000000e+00
8.809999999999999432e+01,0.000000000000000000e+00
8.819999999999998863e+01,0.000000000000000000e+00
8.829999999999999716e+01,1.000000000000000082e-05
8.839999999999999147e+01,0.000000000000000000e+00
8.850000000000000000e+01,0.000000000000000000e+00
8.859999999999999432e+01,0.000000000000000000e+00
8.869999999999998863e+01,0.000000000000000000e+00
8.879999999999999716e+01,0.000000000000000000e+00
8.889999999999999147e+01,0.000000000000000000e+00
8.900000000000000000e+01,0.000000000000000000e+00
8.909999999999999432e+01,0.000000000000000000e+00
8.919999999999998863e+01,0.000000000000000000e+00
8.929999999999999716e+01,0.000000000000000000e+00
8.939999999999999147e+01,0.000000000000000000e+00
8.950000000000000000e+01,0.000000000000000000e+00
8.959999999999999432e+01,0.000000000000000000e+00
8.969999999999998863e+01,0.000000000000000000e+00
8.979999999999999716e+01,0.000000000000000000e+00
8.989999999999999147e+01,0.000000000000000000e+00
9.000000000000000000e+01,0.000000000000000000e+00
9.009999999999999432e+01,0.000000000000000000e+00
9.019999999999998863e+01,0.000000000000000000e+00
9.029999999999999716e+01,0.000000000000000000e+00
9.039999999999999147e+01,0.000000000000000000e+00
9.050000000000000000e+01,0.000000000000000000e+00
9.059999999999999432e+01,0.000000000000000000e+00
9.069999999999998863e+01,0.000000000000000000e+00
9.079999999999999716e+01,0.000000000000000000e+00
9.089999999999999147e+01,0.000000000000000000e+00
9.100000000000000000e+01,0.000000000000000000e+00
9.109999999999999432e+01,0.000000000000000000e+00
9.119999999999998863e+01,0.000000000000000000e+00
9.129999999999999716e+01,0.000000000000000000e+00
9.139999999999999147e+01,0.000000000000000000e+00
9.150000000000000000e+01,0.000000000000000000e+00
9.159999999999999432e+01,0.000000000000000000e+00
9.169999999999998863e+01,0.000000000000000000e+00
9.179999999999999716e+01,0.000000000000000000e+00
9.189999999999999147e+01,0.000000000000000000e+00
9.200000000000000000e+01,0.000000000000000000e+00
9.209999999999999432e+01,0.000000000000000000e+00
9.219999999999998863e+01,0.000000000000000000e+00
9.229999999999999716e+01,0.000000000000000000e+00
9.239999999999999147e+01,0.000000000000000000e+00
9.250000000000000000e+01,0.000000000000000000e+00
9.259999999999999432e+01,0.000000000000000000e+00
9.269999999999998863e+01,0.000000000000000000e+00
9.279999999999999716e+01,0.000000000000000000e+00
9.289999999999999147e+01,0.000000000000000000e+00
9.300000000000000000e+01,0.000000000000000000e+00
9.309999999999999432e+01,0.000000000000000000e+00
9.319999999999998863e+01,0.000000000000000000e+00
9.329999999999999716e+01,0.000000000000000000e+00
9.339999999999999147e+01,0.000000000000000000e+00
9.350000000000000000e+01,0.000000000000000000e+00
9.359999999999999432e+01,0.000000000000000000e+00
9.369999999999998863e+01,0.000000000000000000e+00
9.379999999999999716e+01,0.000000000000000000e+00
9.389999999999999147e+01,0.000000000000000000e+00
9.400000000000000000e+01,0.000000000000000000e+00
9.409999999999999432e+01,0.000000000000000000e+00
9.419999999999998863e+01,0.000000000000000000e+00
9.429999999999999716e+01,0.000000000000000000e+00
9.439999999999999147e+01,0.000000000000000000e+00
9.450000000000000000e+01,0.000000000000000000e+00
9.459999999999999432e+01,0.000000000000000000e+00
9.469999999999998863e+01,0.000000000000000000e+00
9.479999999999999716e+01,0.000000000000000000e+00
9.489999999999999147e+01,0.000000000000000000e+00
9.500000000000000000e+01,0.000000000000000000e+00
9.509999999999999432e+01,0.000000000000000000e+00
9.519999999999998863e+01,0.000000000000000000e+00
9.529999999999999716e+01,0.000000000000000000e+00
9.539999999999999147e+01,0.000000000000000000e+00
9.550000000000000000e+01,0.000000000000000000e+00
9.559999999999999432e+01,0.000000000000000000e+00
9.569999999999998863e+01,0.000000000000000000e+00
9.579999999999999716e+01,0.000000000000000000e+00
9.589999999999999147e+01,0.000000000000000000e+00
9.600000000000000000e+01,0.000000000000000000e+00
9.609999999999999432e+01,0.000000000000000000e+00
9.619999999999998863e+01,0.000000000000000000e+00
9.629999999999999716e+01,0.000000000000000000e+00
9.639999999999999147e+01,0.000000000000000000e+00
9.650000000000000000e+01,0.000000000000000000e+00
9.659999999999999432e+01,0.000000000000000000e+00
9.669999999999998863e+01,0.000000000000000000e+00
9.679999999999999716e+01,0.000000000000000000e+00
9.689999999999999147e+01,0.000000000000000000e+00
9.700000000000000000e+01,0.000000000000000000e+00
9.709999999999999432e+01,0.000000000000000000e+00
9.719999999999998863e+01,0.000000000000000000e+00
9.729999999999999716e+01,0.000000000000000000e+00
9.739999999999999147e+01,0.000000000000000000e+00
9.750000000000000000e+01,0.000000000000000000e+00
9.759999999999999432e+01,0.000000000000000000e+00
9.769999999999998863e+01,0.000000000000000000e+00
9.779999999999999716e+01,0.000000000000000000e+00
9.789999999999999147e+01,0.000000000000000000e+00
9.800000000000000000e+01,0.000000000000000000e+00
9.809999999999999432e+01,0.000000000000000000e+00
9.819999999999998863e+01,0.000000000000000000e+00
9.829999999999999716e+01,0.000000000000000000e+00
9.839999999999999147e+01,0.000000000000000000e+00
9.850000000000000000e+01,0.000000000000000000e+00
9.859999999999999432e+01,0.000000000000000000e+00
9.869999999999998863e+01,0.000000000000000000e+00
9.879999999999999716e+01,0.000000000000000000e+00
9.889999999999999147e+01,0.000000000000000000e+00
9.900000000000000000e+01,0.000000000000000000e+00
9.909999999999999432e+01,0.000000000000000000e+00
9.919999999999998863e+01,0.000000000000000000e+00
9.929999999999999716e+01,0.000000000000000000e+00
9.939999999999999147e+01,0.000000000000000000e+00
9.950000000000000000e+01,0.000000000000000000e+00
9.959999999999999432e+01,0.000000000000000000e+00
9.969999999999998863e+01,0.000000000000000000e+00
9.979999999999999716e+01,0.000000000000000000e+00
9.989999999999999147e+01,0.000000000000000000e+00
1.000000000000000000e+02,0.000000000000000000e+00
1.000999999999999943e+02,0.000000000000000000e+00
1.001999999999999886e+02,0.000000000000000000e+00
1.002999999999999972e+02,0.000000000000000000e+00
1.003999999999999915e+02,1.000000000000000082e-05
1.005000000000000000e+02,0.000000000000000000e+00
1.005999999999999943e+02,0.000000000000000000e+00
1.006999999999999886e+02,0.000000000000000000e+00
1.007999999999999972e+02,0.000000000000000000e+00
1.008999999999999915e+02,0.000000000000000000e+00
1.010000000000000000e+02,0.000000000000000000e+00
1.010999999999999943e+02,0.000000000000000000e+00
1.011999999999999886e+02,0.000000000000000000e+00
1.012999999999999972e+02,0.000000000000000000e+00
1.013999999999999915e+02,0.000000000000000000e+00
1.015000000000000000e+02,0.000000000000000000e+00
1.015999999999999943e+02,0.000000000000000000e+00
1.016999999999999886e+02,0.000000000000000000e+00
1.017999999999999972e+02,0.000000000000000000e+00
1.018999999999999915e+02,0.000000000000000000e+00
1.020000000000000000e+02,0.000000000000000000e+00
1.020999999999999943e+02,0.000000000000000000e+00
1.021999999999999886e+02,0.000000000000000000e+00
1.022999999999999972e+02,0.000000000000000000e+00
1.023999999999999915e+02,0.000000000000000000e+00
1.025000000000000000e+02,0.000000000000000000e+00
1.025999999999999943e+02,0.000000000000000000e+00
1.026999999999999886e+02,0.000000000000000000e+00
1.027999999999999972e+02,0.000000000000000000e+00
1.028999999999999915e+02,0.000000000000000000e+00
1.030000000000000000e+02,0.000000000000000000e+00
1.030999999999999943e+02,0.000000000000000000e+00
1.031999999999999886e+02,0.000000000000000000e+00
1.032999999999999972e+02,0.000000000000000000e+00
1.033999999999999915e+02,0.000000000000000000e+00
1.035000000000000000e+02,0.000000000000000000e+00
1.035999999999999943e+02,0.000000000000000000e+00
1.036999999999999886e+02,0.000000000000000000e+00
1.037999999999999972e+02,0.000000000000000000e+00
1.038999999999999915e+02,0.000000000000000000e+00
1.040000000000000000e+02,0.000000000000000000e+00
1.040999999999999943e+02,0.000000000000000000e+00
1.041999999999999886e+02,0.000000000000000000e+00
1.042999999999999972e+02,0.000000000000000000e+00
1.043999999999999915e+02,0.000000000000000000e+00
1.045000000000000000e+02,0.000000000000000000e+00
1.045999999999999943e+02,0.000000000000000000e+00
1.046999999999999886e+02,0.000000000000000000e+00
1.047999999999999972e+02,0.000000000000000000e+00
1.048999999999999915e+02,0.000000000000000000e+00
1.050000000000000000e+02,0.000000000000000000e+00
1.050999999999999943e+02,0.000000000000000000e+00
1.051999999999999886e+02,0.000000000000000000e+00
1.052999999999999972e+02,0.000000000000000000e+00
1.053999999999999915e+02,0.000000000000000000e+00
1.055000000000000000e+02,0.000000000000000000e+00
1.055999999999999943e+02,0.000000000000000000e+00
1.056999999999999886e+02,0.000000000000000000e+00
1.057999999999999972e+02,0.000000000000000000e+00
1.058999999999999915e+02,0.000000000000000000e+00
1.060000000000000000e+02,0.000000000000000000e+00
1.060999999999999943e+02,0.000000000000000000e+00
1.061999999999999886e+02,0.000000000000000000e+00
1.062999999999999972e+02,0.000000000000000000e+00
1.063999999999999915e+02,0.000000000000000000e+00
1.065000000000000000e+02,0.000000000000000000e+00
1.065999999999999943e+02,0.000000000000000000e+00
1.066999999999999886e+02,0.000000000000000000e+00
1.067999999999999972e+02,0.000000000000000000e+00
1.068999999999999915e+02,0.000000000000000000e+00
1.070000000000000000e+02,0.000000000000000000e+00
1.070999999999999943e+02,0.000000000000000000e+00
1.071999999999999886e+02,0.000000000000000000e+00
1.072999999999999972e+02,0.000000000000000000e+00
1.073999999999999915e+02,0.000000000000000000e+00
1.075000000000000000e+02,0.000000000000000000e+00
1.075999999999999943e+02,0.000000000000000000e+00
1.076999999999999886e+02,0.000000000000000000e+00
1.077999999999999972e+02,0.000000000000000000e+00
1.078999999999999915e+02,0.000000000000000000e+00
1.080000000000000000e+02,0.000000000000000000e+00
1.080999999999999943e+02,0.000000000000000000e+00
1.081999999999999886e+02,0.000000000000000000e+00
1.082999999999999972e+02,0.000000000000000000e+00
1.083999999999999915e+02,0.000000000000000000e+00
1.085000000000000000e+02,0.000000000000000000e+00
1.085999999999999943e+02,0.000000000000000000e+00
1.086999999999999886e+02,0.000000000000000000e+00
1.087999999999999972e+02,0.000000000000000000e+00
1.088999999999999915e+02,0.000000000000000000e+00
1.090000000000000000e+02,0.000000000000000000e+00
1.090999999999999943e+02,0.000000000000000000e+00
1.091999999999999886e+02,0.000000000000000000e+00
1.092999999999999972e+02,0.000000000000000000e+00
1.093999999999999915e+02,0.000000000000000000e+00
1.095000000000000000e+02,0.000000000000000000e+00
1.095999999999999943e+02,0.000000000000000000e+00
1.096999999999999886e+02,0.000000000000000000e+00
1.097999999999999972e+02,0.000000000000000000e+00
1.098999999999999915e+02,0.000000000000000000e+00
1.100000000000000000e+02,0.000000000000000000e+00
1.100999999999999943e+02,0.000000000000000000e+00
1.101999999999999886e+02,0.000000000000000000e+00
1.102999999999999972e+02,0.000000000000000000e+00
1.103999999999999915e+02,0.000000000000000000e+00
1.105000000000000000e+02,1.000000000000000082e-05
1.105999999999999943e+02,0.000000000000000000e+00
1.106999999999999886e+02,0.000000000000000000e+00
1.107999999999999972e+02,0.000000000000000000e+00
1.108999999999999915e+02,0.000000000000000000e+00
1.110000000000000000e+02,0.000000000000000000e+00
1.110999999999999943e+02,0.000000000000000000e+00
1.111999999999999886e+02,0.000000000000000000e+00
1.112999999999999972e+02,0.000000000000000000e+00
1.113999999999999915e+02,0.000000000000000000e+00
1.115000000000000000e+02,0.000000000000000000e+00
1.115999999999999943e+02,0.000000000000000000e+00
1.116999999999999886e+02,0.000000000000000000e+00
1.117999999999999972e+02,0.000000000000000000e+00
1.118999999999999915e+02,0.000000000000000000e+00
1.120000000000000000e+02,0.000000000000000000e+00
1.120999999999999943e+02,0.000000000000000000e+00
1.121999999999999886e+02,0.000000000000000000e+00
1.122999999999999972e+02,0.000000000000000000e+00
1.123999999999999915e+02,0.000000000000000000e+00
1.125000000000000000e+02,0.000000000000000000e+00
1.125999999999999943e+02,0.000000000000000000e+00
1.126999999999999886e+02,0.000000000000000000e+00
1.127999999999999972e+02,0.000000000000000000e+00
1.128999999999999915e+02,0.000000000000000000e+00
1.130000000000000000e+02,0.000000000000000000e+00
1.130999999999999943e+02,0.000000000000000000e+00
1.131999999999999886e+02,0.000000000000000000e+00
1.132999999999999972e+02,0.000000000000000000e+00
1.133999999999999915e+02,0.000000000000000000e+00
1.135000000000000000e+02,0.000000000000000000e+00
1.135999999999999943e+02,0.000000000000000000e+00
1.136999999999999886e+02,0.000000000000000000e+00
1.137999999999999972e+02,0.000000000000000000e+00
1.138999999999999915e+02,0.000000000000000000e+00
1.140000000000000000e+02,0.000000000000000000e+00
1.140999999999999943e+02,0.000000000000000000e+00
1.141999999999999886e+02,0.000000000000000000e+00
1.142999999999999972e+02,0.000000000000000000e+00
1.143999999999999915e+02,0.000000000000000000e+00
1.145000000000000000e+02,0.000000000000000000e+00
1.145999999999999943e+02,0.000000000000000000e+00
1.146999999999999886e+02,0.000000000000000000e+00
1.147999999999999972e+02,0.000000000000000000e+00
1.148999999999999915e+02,0.000000000000000000e+00
1.150000000000000000e+02,0.000000000000000000e+00
1.150999999999999943e+02,0.000000000000000000e+00
1.151999999999999886e+02,0.000000000000000000e+00
1.152999999999999972e+02,0.000000000000000000e+00
1.153999999999999915e+02,0.000000000000000000e+00
1.155000000000000000e+02,0.000000000000000000e+00
1.155999999999999943e+02,0.000000000000000000e+00
1.156999999999999886e+02,0.000000000000000000e+00
1.157999999999999972e+02,0.000000000000000000e+00
1.158999999999999915e+02,0.000000000000000000e+00
1.160000000000000000e+02,0.000000000000000000e+00
1.160999999999999943e+02,0.000000000000000000e+00
1.161999999999999886e+02,0.000000000000000000e+00
1.162999999999999972e+02,0.000000000000000000e+00
1.163999999999999915e+02,0.000000000000000000e+00
1.165000000000000000e+02,0.000000000000000000e+00
1.165999999999999943e+02,0.000000000000000000e+00
1.166999999999999886e+02,0.000000000000000000e+00
1.167999999999999972e+02,0.000000000000000000e+00
1.168999999999999915e+02,0.000000000000000000e+00
1.170000000000000000e+02,0.000000000000000000e+00
1.170999999999999943e+02,0.000000000000000000e+00
1.171999999999999886e+02,0.000000000000000000e+00
1.172999999999999972e+02,0.000000000000000000e+00
1.173999999999999915e+02,0.000000000000000000e+00
1.175000000000000000e+02,0.000000000000000000e+00
1.175999999999999943e+02,0.000000000000000000e+00
1.176999999999999886e+02,0.000000000000000000e+00
1.177999999999999972e+02,0.000000000000000000e+00
1.178999999999999915e+02,0.000000000000000000e+00
1.180000000000000000e+02,0.000000000000000000e+00
1.180999999999999943e+02,0.000000000000000000e+00
1.181999999999999886e+02,0.000000000000000000e+00
1.182999999999999972e+02,0.000000000000000000e+00
1.183999999999999915e+02,0.000000000000000000e+00
1.185000000000000000e+02,0.000000000000000000e+00
1.185999999999999943e+02,0.000000000000000000e+00
1.186999999999999886e+02,0.000000000000000000e+00
1.187999999999999972e+02,0.000000000000000000e+00
1.188999999999999915e+02,0.000000000000000000e+00
1.190000000000000000e+02,0.000000000000000000e+00
1.190999999999999943e+02,0.000000000000000000e+00
1.191999999999999886e+02,0.000000000000000000e+00
1.192999999999999972e+02,0.000000000000000000e+00
1.193999999999999915e+02,0.000000000000000000e+00
1.195000000000000000e+02,0.000000000000000000e+00
1.195999999999999943e+02,0.000000000000000000e+00
1.196999999999999886e+02,0.000000000000000000e+00
1.197999999999999972e+02,0.000000000000000000e+00
1.198999999999999915e+02,0.000000000000000000e+00
1.200000000000000000e+02,0.000000000000000000e+00
1.200999999999999943e+02,0.000000000000000000e+00
1.201999999999999886e+02,0.000000000000000000e+00
1.202999999999999972e+02,0.000000000000000000e+00
1.203999999999999915e+02,0.000000000000000000e+00
1.205000000000000000e+02,0.000000000000000000e+00
1.205999999999999943e+02,0.000000000000000000e+00
1.206999999999999886e+02,0.000000000000000000e+00
1.207999999999999972e+02,0.000000000000000000e+00
1.208999999999999915e+02,0.000000000000000000e+00
1.210000000000000000e+02,0.000000000000000000e+00
1.210999999999999943e+02,0.000000000000000000e+00
1.211999999999999886e+02,0.000000000000000000e+00
1.212999999999999972e+02,0.000000000000000000e+00
1.213999999999999915e+02,0.000000000000000000e+00
1.215000000000000000e+02,0.000000000000000000e+00
1.215999999999999943e+02,0.000000000000000000e+00
1.216999999999999886e+02,0.000000000000000000e+00
1.217999999999999972e+02,0.000000000000000000e+00
1.218999999999999915e+02,0.000000000000000000e+00
1.220000000000000000e+02,0.000000000000000000e+00
1.220999999999999943e+02,0.000000000000000000e+00
1.221999999999999886e+02,0.000000000000000000e+00
1.222999999999999972e+02,0.000000000000000000e+00
1.223999999999999915e+02,0.000000000000000000e+00
1.225000000000000000e+02,0.000000000000000000e+00
1.225999999999999943e+02,0.000000000000000000e+00
1.226999999999999886e+02,0.000000000000000000e+00
1.227999999999999972e+02,0.000000000000000000e+00
1.228999999999999915e+02,0.000000000000000000e+00
1.230000000000000000e+02,0.000000000000000000e+00
1.230999999999999943e+02,0.000000000000000000e+00
1.231999999999999886e+02,0.000000000000000000e+00
1.232999999999999972e+02,0.000000000000000000e+00
1.233999999999999915e+02,0.000000000000000000e+00
1.235000000000000000e+02,0.000000000000000000e+00
1.235999999999999943e+02,0.000000000000000000e+00
1.236999999999999886e+02,0.000000000000000000e+00
1.237999999999999972e+02,0.000000000000000000e+00
1.238999999999999915e+02,0.000000000000000000e+00
1.240000000000000000e+02,0.000000000000000000e+00
1.240999999999999943e+02,0.000000000000000000e+00
1.241999999999999886e+02,0.000000000000000000e+00
1.242999999999999972e+02,0.000000000000000000e+00
1.243999999999999915e+02,0.000000000000000000e+00
1.245000000000000000e+02,0.000000000000000000e+00
1.245999999999999943e+02,0.000000000000000000e+00
1.246999999999999886e+02,0.000000000000000000e+00
1.247999999999999972e+02,0.000000000000000000e+00
1.248999999999999915e+02,0.000000000000000000e+00
1.250000000000000000e+02,0.000000000000000000e+00
1.250999999999999943e+02,0.000000000000000000e+00
1.251999999999999886e+02,0.000000000000000000e+00
1.252999999999999972e+02,0.000000000000000000e+00
1.253999999999999915e+02,0.000000000000000000e+00
1.255000000000000000e+02,0.000000000000000000e+00
1.255999999999999943e+02,0.000000000000000000e+00
1.256999999999999886e+02,0.000000000000000000e+00
1.257999999999999972e+02,0.000000000000000000e+00
1.258999999999999915e+02,0.000000000000000000e+00
1.260000000000000000e+02,0.000000000000000000e+00
1.260999999999999943e+02,0.000000000000000000e+00
1.261999999999999886e+02,0.000000000000000000e+00
1.262999999999999972e+02,0.000000000000000000e+00
1.263999999999999915e+02,0.000000000000000000e+00
1.265000000000000000e+02,0.000000000000000000e+00
1.265999999999999943e+02,0.000000000000000000e+00
1.266999999999999886e+02,0.000000000000000000e+00
1.267999999999999972e+02,0.000000000000000000e+00
1.268999999999999915e+02,0.000000000000000000e+00
1.270000000000000000e+02,0.000000000000000000e+00
1.270999999999999943e+02,0.000000000000000000e+00
1.271999999999999886e+02,0.000000000000000000e+00
1.272999999999999972e+02,0.000000000000000000e+00
1.273999999999999915e+02,0.000000000000000000e+00
1.275000000000000000e+02,0.000000000000000000e+00
1.275999999999999943e+02,0.000000000000000000e+00
1.276999999999999886e+02,0.000000000000000000e+00
1.277999999999999972e+02,0.000000000000000000e+00
1.278999999999999915e+02,0.000000000000000000e+00
1.280000000000000000e+02,0.000000000000000000e+00
1.280999999999999943e+02,0.000000000000000000e+00
1.281999999999999886e+02,0.000000000000000000e+00
1.282999999999999829e+02,0.000000000000000000e+00
1.284000000000000057e+02,0.000000000000000000e+00
1.285000000000000000e+02,0.000000000000000000e+00
1.285999999999999943e+02,0.000000000000000000e+00
1.286999999999999886e+02,0.000000000000000000e+00
1.287999999999999829e+02,0.000000000000000000e+00
1.289000000000000057e+02,0.000000000000000000e+00
1.290000000000000000e+02,0.000000000000000000e+00
1.290999999999999943e+02,0.000000000000000000e+00
1.291999999999999886e+02,0.000000000000000000e+00
1.292999999999999829e+02,0.000000000000000000e+00
1.294000000000000057e+02,0.000000000000000000e+00
1.295000000000000000e+02,0.000000000000000000e+00
1.295999999999999943e+02,0.000000000000000000e+00
1.296999999999999886e+02,0.000000000000000000e+00
1.297999999999999829e+02,0.000000000000000000e+00
1.299000000000000057e+02,0.000000000000000000e+00
1.300000000000000000e+02,0.000000000000000000e+00
1.300999999999999943e+02,0.000000000000000000e+00
1.301999999999999886e+02,0.000000000000000000e+00
1.302999999999999829e+02,0.000000000000000000e+00
1.304000000000000057e+02,0.000000000000000000e+00
1.305000000000000000e+02,0.000000000000000000e+00
1.305999999999999943e+02,0.000000000000000000e+00
1.306999999999999886e+02,0.000000000000000000e+00
1.307999999999999829e+02,0.000000000000000000e+00
1.309000000000000057e+02,0.000000000000000000e+00
1.310000000000000000e+02,0.000000000000000000e+00
1.310999999999999943e+02,0.000000000000000000e+00
1.311999999999999886e+02,0.000000000000000000e+00
1.312999999999999829e+02,0.000000000000000000e+00
1.314000000000000057e+02,0.000000000000000000e+00
1.315000000000000000e+02,0.000000000000000000e+00
1.315999999999999943e+02,0.000000000000000000e+00
1.316999999999999886e+02,0.000000000000000000e+00
1.317999999999999829e+02,0.000000000000000000e+00
1.319000000000000057e+02,0.000000000000000000e+00
1.320000000000000000e+02,0.000000000000000000e+00
1.320999999999999943e+02,0.000000000000000000e+00
1.321999999999999886e+02,0.000000000000000000e+00
1.322999999999999829e+02,0.000000000000000000e+00
1.324000000000000057e+02,0.000000000000000000e+00
1.325000000000000000e+02,0.000000000000000000e+00
1.325999999999999943e+02,0.000000000000000000e+00
1.326999999999999886e+02,0.000000000000000000e+00
1.327999999999999829e+02,0.000000000000000000e+00
1.329000000000000057e+02,0.000000000000000000e+00
1.330000000000000000e+02,0.000000000000000000e+00
1.330999999999999943e+02,0.000000000000000000e+00
1.331999999999999886e+02,0.000000000000000000e+00
1.332999999999999829e+02,0.000000000000000000e+00
1.334000000000000057e+02,0.000000000000000000e+00
1.335000000000000000e+02,0.000000000000000000e+00
1.335999999999999943e+02,0.000000000000000000e+00
1.336999999999999886e+02,0.000000000000000000e+00
1.337999999999999829e+02,0.000000000000000000e+00
1.339000000000000057e+02,0.000000000000000000e+00
1.340000000000000000e+02,0.000000000000000000e+00
1.340999999999999943e+02,0.000000000000000000e+00
1.341999999999999886e+02,0.000000000000000000e+00
1.342999999999999829e+02,0.000000000000000000e+00
1.344000000000000057e+02,0.000000000000000000e+00
1.345000000000000000e+02,0.000000000000000000e+00
1.345999999999999943e+02,0.000000000000000000e+00
1.346999999999999886e+02,0.000000000000000000e+00
1.347999999999999829e+02,0.000000000000000000e+00
1.349000000000000057e+02,0.000000000000000000e+00
1.350000000000000000e+02,0.000000000000000000e+00
1.350999999999999943e+02,0.000000000000000000e+00
1.351999999999999886e+02,0.000000000000000000e+00
1.352999999999999829e+02,0.000000000000000000e+00
1.354000000000000057e+02,0.000000000000000000e+00
1.355000000000000000e+02,0.000000000000000000e+00
1.355999999999999943e+02,0.000000000000000000e+00
1.356999999999999886e+02,0.000000000000000000e+00
1.357999999999999829e+02,0.000000000000000000e+00
1.359000000000000057e+02,0.000000000000000000e+00
1.360000000000000000e+02,0.000000000000000000e+00
1.360999999999999943e+02,0.000000000000000000e+00
1.361999999999999886e+02,0.000000000000000000e+00
1.362999999999999829e+02,0.000000000000000000e+00
1.364000000000000057e+02,0.000000000000000000e+00
1.365000000000000000e+02,0.000000000000000000e+00
1.365999999999999943e+02,0.000000000000000000e+00
1.366999999999999886e+02,0.000000000000000000e+00
1.367999999999999829e+02,0.000000000000000000e+00
1.369000000000000057e+02,0.000000000000000000e+00
1.370000000000000000e+02,0.000000000000000000e+00
1.370999999999999943e+02,0.000000000000000000e+00
1.371999999999999886e+02,0.000000000000000000e+00
1.372999999999999829e+02,0.000000000000000000e+00
1.374000000000000057e+02,0.000000000000000000e+00
1.375000000000000000e+02,0.000000000000000000e+00
1.375999999999999943e+02,0.000000000000000000e+00
1.376999999999999886e+02,0.000000000000000000e+00
1.377999999999999829e+02,0.000000000000000000e+00
1.379000000000000057e+02,0.000000000000000000e+00
1.380000000000000000e+02,0.000000000000000000e+00
1.380999999999999943e+02,0.000000000000000000e+00
1.381999999999999886e+02,0.000000000000000000e+00
1.382999999999999829e+02,0.000000000000000000e+00
1.384000000000000057e+02,0.000000000000000000e+00
1.385000000000000000e+02,0.000000000000000000e+00
1.385999999999999943e+02,0.000000000000000000e+00
1.386999999999999886e+02,0.000000000000000000e+00
1.387999999999999829e+02,0.000000000000000000e+00
1.389000000000000057e+02,0.000000000000000000e+00
1.390000000000000000e+02,0.000000000000000000e+00
1.390999999999999943e+02,0.000000000000000000e+00
1.391999999999999886e+02,0.000000000000000000e+00
1.392999999999999829e+02,0.000000000000000000e+00
1.394000000000000057e+02,0.000000000000000000e+00
1.395000000000000000e+02,0.000000000000000000e+00
1.395999999999999943e+02,0.000000000000000000e+00
1.396999999999999886e+02,0.000000000000000000e+00
1.397999999999999829e+02,0.000000000000000000e+00
1.399000000000000057e+02,0.000000000000000000e+00
1.400000000000000000e+02,0.000000000000000000e+00
1.400999999999999943e+02,0.000000000000000000e+00
1.401999999999999886e+02,0.000000000000000000e+00
1.402999999999999829e+02,0.000000000000000000e+00
1.404000000000000057e+02,0.000000000000000000e+00
1.405000000000000000e+02,0.000000000000000000e+00
1.405999999999999943e+02,0.000000000000000000e+00
1.406999999999999886e+02,0.000000000000000000e+00
1.407999999999999829e+02,0.000000000000000000e+00
1.409000000000000057e+02,0.000000000000000000e+00
1.410000000000000000e+02,0.000000000000000000e+00
1.410999999999999943e+02,0.000000000000000000e+00
1.411999999999999886e+02,0.000000000000000000e+00
1.412999999999999829e+02,0.000000000000000000e+00
1.414000000000000057e+02,0.000000000000000000e+00
1.415000000000000000e+02,0.000000000000000000e+00
1.415999999999999943e+02,0.000000000000000000e+00
1.416999999999999886e+02,0.000000000000000000e+00
1.417999999999999829e+02,0.000000000000000000e+00
1.419000000000000057e+02,0.000000000000000000e+00
1.420000000000000000e+02,0.000000000000000000e+00
1.420999999999999943e+02,0.000000000000000000e+00
1.421999999999999886e+02,0.000000000000000000e+00
1.422999999999999829e+02,0.000000000000000000e+00
1.424000000000000057e+02,0.000000000000000000e+00
1.425000000000000000e+02,0.000000000000000000e+00
1.425999999999999943e+02,0.000000000000000000e+00
1.426999999999999886e+02,0.000000000000000000e+00
1.427999999999999829e+02,0.000000000000000000e+00
1.429000000000000057e+02,0.000000000000000000e+00
1.430000000000000000e+02,0.000000000000000000e+00
1.430999999999999943e+02,0.000000000000000000e+00
1.431999999999999886e+02,0.000000000000000000e+00
1.432999999999999829e+02,0.000000000000000000e+00
1.434000000000000057e+02,0.000000000000000000e+00
1.435000000000000000e+02,0.000000000000000000e+00
1.435999999999999943e+02,0.000000000000000000e+00
1.436999999999999886e+02,0.000000000000000000e+00
1.437999999999999829e+02,0.000000000000000000e+00
1.439000000000000057e+02,0.000000000000000000e+00
1.440000000000000000e+02,0.000000000000000000e+00
1.440999999999999943e+02,0.000000000000000000e+00
1.441999999999999886e+02,0.000000000000000000e+00
1.442999999999999829e+02,0.000000000000000000e+00
1.444000000000000057e+02,0.000000000000000000e+00
1.445000000000000000e+02,0.000000000000000000e+00
1.445999999999999943e+02,0.000000000000000000e+00
1.446999999999999886e+02,0.000000000000000000e+00
1.447999999999999829e+02,0.000000000000000000e+00
1.449000000000000057e+02,0.000000000000000000e+00
1.450000000000000000e+02,0.000000000000000000e+00
1.450999999999999943e+02,0.000000000000000000e+00
1.451999999999999886e+02,0.000000000000000000e+00
1.452999999999999829e+02,0.000000000000000000e+00
1.454000000000000057e+02,0.000000000000000000e+00
1.455000000000000000e+02,0.000000000000000000e+00
1.455999999999999943e+02,0.000000000000000000e+00
1.456999999999999886e+02,0.000000000000000000e+00
1.457999999999999829e+02,0.000000000000000000e+00
1.459000000000000057e+02,0.000000000000000000e+00
1.460000000000000000e+02,0.000000000000000000e+00
1.460999999999999943e+02,0.000000000000000000e+00
1.461999999999999886e+02,0.000000000000000000e+00
1.462999999999999829e+02,0.000000000000000000e+00
1.464000000000000057e+02,0.000000000000000000e+00
1.465000000000000000e+02,0.000000000000000000e+00
1.465999999999999943e+02,0.000000000000000000e+00
1.466999999999999886e+02,0.000000000000000000e+00
1.467999999999999829e+02,0.000000000000000000e+00
1.469000000000000057e+02,0.000000000000000000e+00
1.470000000000000000e+02,0.000000000000000000e+00
1.470999999999999943e+02,0.000000000000000000e+00
1.471999999999999886e+02,0.000000000000000000e+00
1.472999999999999829e+02,0.000000000000000000e+00
1.474000000000000057e+02,0.000000000000000000e+00
1.475000000000000000e+02,0.000000000000000000e+00
1.475999999999999943e+02,0.000000000000000000e+00
1.476999999999999886e+02,0.000000000000000000e+00
1.477999999999999829e+02,0.000000000000000000e+00
1.479000000000000057e+02,0.000000000000000000e+00
1.480000000000000000e+02,0.000000000000000000e+00
1.480999999999999943e+02,0.000000000000000000e+00
1.481999999999999886e+02,0.000000000000000000e+00
1.482999999999999829e+02,0.000000000000000000e+00
1.484000000000000057e+02,0.000000000000000000e+00
1.485000000000000000e+02,0.000000000000000000e+00
1.485999999999999943e+02,0.000000000000000000e+00
1.486999999999999886e+02,0.000000000000000000e+00
1.487999999999999829e+02,0.000000000000000000e+00
1.489000000000000057e+02,0.000000000000000000e+00
1.490000000000000000e+02,0.000000000000000000e+00
1.490999999999999943e+02,0.000000000000000000e+00
1.491999999999999886e+02,0.000000000000000000e+00
1.492999999999999829e+02,0.000000000000000000e+00
1.494000000000000057e+02,0.000000000000000000e+00
1.495000000000000000e+02,0.000000000000000000e+00
1.495999999999999943e+02,0.000000000000000000e+00
1.496999999999999886e+02,0.000000000000000000e+00
1.497999999999999829e+02,0.000000000000000000e+00
1.499000000000000057e+02,0.000000000000000000e+00
1.500000000000000000e+02,0.000000000000000000e+00
1.500999999999999943e+02,0.000000000000000000e+00
1.501999999999999886e+02,0.000000000000000000e+00
1.502999999999999829e+02,0.000000000000000000e+00
1.504000000000000057e+02,0.000000000000000000e+00
1.505000000000000000e+02,0.000000000000000000e+00
1.505999999999999943e+02,0.000000000000000000e+00
1.506999999999999886e+02,0.000000000000000000e+00
1.507999999999999829e+02,0.000000000000000000e+00
1.509000000000000057e+02,0.000000000000000000e+00
1.510000000000000000e+02,0.000000000000000000e+00
1.510999999999999943e+02,0.000000000000000000e+00
1.511999999999999886e+02,0.000000000000000000e+00
1.512999999999999829e+02,0.000000000000000000e+00
1.514000000000000057e+02,0.000000000000000000e+00
1.515000000000000000e+02,0.000000000000000000e+00
1.515999999999999943e+02,0.000000000000000000e+00
1.516999999999999886e+02,0.000000000000000000e+00
1.517999999999999829e+02,0.000000000000000000e+00
1.519000000000000057e+02,0.000000000000000000e+00
1.520000000000000000e+02,0.000000000000000000e+00
1.520999999999999943e+02,0.000000000000000000e+00
1.521999999999999886e+02,0.000000000000000000e+00
1.522999999999999829e+02,0.000000000000000000e+00
1.524000000000000057e+02,0.000000000000000000e+00
1.525000000000000000e+02,0.000000000000000000e+00
1.525999999999999943e+02,0.000000000000000000e+00
1.526999999999999886e+02,0.000000000000000000e+00
1.527999999999999829e+02,0.000000000000000000e+00
1.529000000000000057e+02,0.000000000000000000e+00
1.530000000000000000e+02,0.000000000000000000e+00
1.530999999999999943e+02,0.000000000000000000e+00
1.531999999999999886e+02,0.000000000000000000e+00
1.532999999999999829e+02,0.000000000000000000e+00
1.534000000000000057e+02,0.000000000000000000e+00
1.535000000000000000e+02,0.000000000000000000e+00
1.535999999999999943e+02,0.000000000000000000e+00
1.536999999999999886e+02,0.000000000000000000e+00
1.537999999999999829e+02,0.000000000000000000e+00
1.539000000000000057e+02,0.000000000000000000e+00
1.540000000000000000e+02,0.000000000000000000e+00
1.540999999999999943e+02,0.000000000000000000e+00
1.541999999999999886e+02,0.000000000000000000e+00
1.542999999999999829e+02,0.000000000000000000e+00
1.544000000000000057e+02,0.000000000000000000e+00
1.545000000000000000e+02,0.000000000000000000e+00
1.545999999999999943e+02,0.000000000000000000e+00
1.546999999999999886e+02,0.000000000000000000e+00
1.547999999999999829e+02,0.000000000000000000e+00
1.549000000000000057e+02,0.000000000000000000e+00
1.550000000000000000e+02,0.000000000000000000e+00
1.550999999999999943e+02,0.000000000000000000e+00
1.551999999999999886e+02,0.000000000000000000e+00
1.552999999999999829e+02,0.000000000000000000e+00
1.554000000000000057e+02,0.000000000000000000e+00
1.555000000000000000e+02,0.000000000000000000e+00
1.555999999999999943e+02,0.000000000000000000e+00
1.556999999999999886e+02,0.000000000000000000e+00
1.557999999999999829e+02,0.000000000000000000e+00
1.559000000000000057e+02,0.000000000000000000e+00
1.560000000000000000e+02,0.000000000000000000e+00
1.560999999999999943e+02,0.000000000000000000e+00
1.561999999999999886e+02,0.000000000000000000e+00
1.562999999999999829e+02,0.000000000000000000e+00
1.564000000000000057e+02,0.000000000000000000e+00
1.565000000000000000e+02,0.000000000000000000e+00
1.565999999999999943e+02,0.000000000000000000e+00
1.566999999999999886e+02,0.000000000000000000e+00
1.567999999999999829e+02,0.000000000000000000e+00
1.569000000000000057e+02,0.000000000000000000e+00
1.570000000000000000e+02,0.000000000000000000e+00
1.570999999999999943e+02,0.000000000000000000e+00
1.571999999999999886e+02,0.000000000000000000e+00
1.572999999999999829e+02,0.000000000000000000e+00
1.574000000000000057e+02,0.000000000000000000e+00
1.575000000000000000e+02,0.000000000000000000e+00
1.575999999999999943e+02,0.000000000000000000e+00
1.576999999999999886e+02,0.000000000000000000e+00
1.577999999999999829e+02,0.000000000000000000e+00
1.579000000000000057e+02,0.000000000000000000e+00
1.580000000000000000e+02,0.000000000000000000e+00
1.580999999999999943e+02,0.000000000000000000e+00
1.581999999999999886e+02,0.000000000000000000e+00
1.582999999999999829e+02,0.000000000000000000e+00
1.584000000000000057e+02,0.000000000000000000e+00
1.585000000000000000e+02,0.000000000000000000e+00
1.585999999999999943e+02,0.000000000000000000e+00
1.586999999999999886e+02,0.000000000000000000e+00
1.587999999999999829e+02,0.000000000000000000e+00
1.589000000000000057e+02,0.000000000000000000e+00
1.590000000000000000e+02,0.000000000000000000e+00
1.590999999999999943e+02,0.000000000000000000e+00
1.591999999999999886e+02,0.000000000000000000e+00
1.592999999999999829e+02,0.000000000000000000e+00
1.594000000000000057e+02,0.000000000000000000e+00
1.595000000000000000e+02,0.000000000000000000e+00
1.595999999999999943e+02,0.000000000000000000e+00
1.596999999999999886e+02,0.000000000000000000e+00
1.597999999999999829e+02,0.000000000000000000e+00
1.599000000000000057e+02,0.000000000000000000e+00
1.600000000000000000e+02,0.000000000000000000e+00
1.600999999999999943e+02,0.000000000000000000e+00
1.601999999999999886e+02,0.000000000000000000e+00
1.602999999999999829e+02,0.000000000000000000e+00
1.604000000000000057e+02,0.000000000000000000e+00
1.605000000000000000e+02,0.000000000000000000e+00
1.605999999999999943e+02,0.000000000000000000e+00
1.606999999999999886e+02,0.000000000000000000e+00
1.607999999999999829e+02,0.000000000000000000e+00
1.609000000000000057e+02,0.000000000000000000e+00
1.610000000000000000e+02,0.000000000000000000e+00
1.610999999999999943e+02,0.000000000000000000e+00
1.611999999999999886e+02,0.000000000000000000e+00
1.612999999999999829e+02,0.000000000000000000e+00
1.614000000000000057e+02,0.000000000000000000e+00
1.615000000000000000e+02,0.000000000000000000e+00
1.615999999999999943e+02,0.000000000000000000e+00
1.616999999999999886e+02,0.000000000000000000e+00
1.617999999999999829e+02,0.000000000000000000e+00
1.619000000000000057e+02,0.000000000000000000e+00
1.620000000000000000e+02,0.000000000000000000e+00
1.620999999999999943e+02,0.000000000000000000e+00
1.621999999999999886e+02,0.000000000000000000e+00
1.622999999999999829e+02,0.000000000000000000e+00
1.624000000000000057e+02,0.000000000000000000e+00
1.625000000000000000e+02,0.000000000000000000e+00
1.625999999999999943e+02,0.000000000000000000e+00
1.626999999999999886e+02,0.000000000000000000e+00
1.627999999999999829e+02,0.000000000000000000e+00
1.629000000000000057e+02,0.000000000000000000e+00
1.630000000000000000e+02,0.000000000000000000e+00
1.630999999999999943e+02,0.000000000000000000e+00
1.631999999999999886e+02,0.000000000000000000e+00
1.632999999999999829e+02,0.000000000000000000e+00
1.634000000000000057e+02,0.000000000000000000e+00
1.635000000000000000e+02,0.000000000000000000e+00
1.635999999999999943e+02,0.000000000000000000e+00
1.636999999999999886e+02,0.000000000000000000e+00
1.637999999999999829e+02,0.000000000000000000e+00
1.639000000000000057e+02,0.000000000000000000e+00
1.640000000000000000e+02,0.000000000000000000e+00
1.640999999999999943e+02,0.000000000000000000e+00
1.641999999999999886e+02,0.000000000000000000e+00
1.642999999999999829e+02,0.000000000000000000e+00
1.644000000000000057e+02,0.000000000000000000e+00
1.645000000000000000e+02,0.000000000000000000e+00
1.645999999999999943e+02,0.000000000000000000e+00
1.646999999999999886e+02,0.000000000000000000e+00
1.647999999999999829e+02,0.000000000000000000e+00
1.649000000000000057e+02,0.000000000000000000e+00
1.650000000000000000e+02,0.000000000000000000e+00
1.650999999999999943e+02,0.000000000000000000e+00
1.651999999999999886e+02,0.000000000000000000e+00
1.652999999999999829e+02,0.000000000000000000e+00
1.654000000000000057e+02,0.000000000000000000e+00
1.655000000000000000e+02,0.000000000000000000e+00
1.655999999999999943e+02,0.000000000000000000e+00
1.656999999999999886e+02,0.000000000000000000e+00
1.657999999999999829e+02,0.000000000000000000e+00
1.659000000000000057e+02,0.000000000000000000e+00
1.660000000000000000e+02,0.000000000000000000e+00
1.660999999999999943e+02,0.000000000000000000e+00
1.661999999999999886e+02,0.000000000000000000e+00
1.662999999999999829e+02,0.000000000000000000e+00
1.664000000000000057e+02,0.000000000000000000e+00
1.665000000000000000e+02,0.000000000000000000e+00
1.665999999999999943e+02,0.000000000000000000e+00
1.666999999999999886e+02,0.000000000000000000e+00
1.667999999999999829e+02,0.000000000000000000e+00
1.669000000000000057e+02,0.000000000000000000e+00
1.670000000000000000e+02,0.000000000000000000e+00
1.670999999999999943e+02,0.000000000000000000e+00
1.671999999999999886e+02,0.000000000000000000e+00
1.672999999999999829e+02,0.000000000000000000e+00
1.674000000000000057e+02,0.000000000000000000e+00
1.675000000000000000e+02,0.000000000000000000e+00
1.675999999999999943e+02,0.000000000000000000e+00
1.676999999999999886e+02,0.000000000000000000e+00
1.677999999999999829e+02,0.000000000000000000e+00
1.679000000000000057e+02,0.000000000000000000e+00
1.680000000000000000e+02,0.000000000000000000e+00
1.680999999999999943e+02,0.000000000000000000e+00
1.681999999999999886e+02,0.000000000000000000e+00
1.682999999999999829e+02,0.000000000000000000e+00
1.684000000000000057e+02,0.000000000000000000e+00
1.685000000000000000e+02,0.000000000000000000e+00
1.685999999999999943e+02,0.000000000000000000e+00
1.686999999999999886e+02,0.000000000000000000e+00
1.687999999999999829e+02,0.000000000000000000e+00
1.689000000000000057e+02,0.000000000000000000e+00
1.690000000000000000e+02,0.000000000000000000e+00
1.690999999999999943e+02,0.000000000000000000e+00
1.691999999999999886e+02,0.000000000000000000e+00
1.692999999999999829e+02,0.000000000000000000e+00
1.694000000000000057e+02,0.000000000000000000e+00
1.695000000000000000e+02,0.000000000000000000e+00
1.695999999999999943e+02,0.000000000000000000e+00
1.696999999999999886e+02,0.000000000000000000e+00
1.697999999999999829e+02,0.000000000000000000e+00
1.699000000000000057e+02,0.000000000000000000e+00
1.700000000000000000e+02,0.000000000000000000e+00
1.700999999999999943e+02,0.000000000000000000e+00
1.701999999999999886e+02,0.000000000000000000e+00
1.702999999999999829e+02,0.000000000000000000e+00
1.704000000000000057e+02,0.000000000000000000e+00
1.705000000000000000e+02,0.000000000000000000e+00
1.705999999999999943e+02,0.000000000000000000e+00
1.706999999999999886e+02,0.000000000000000000e+00
1.707999999999999829e+02,0.000000000000000000e+00
1.709000000000000057e+02,0.000000000000000000e+00
1.710000000000000000e+02,0.000000000000000000e+00
1.710999999999999943e+02,0.000000000000000000e+00
1.711999999999999886e+02,0.000000000000000000e+00
1.712999999999999829e+02,0.000000000000000000e+00
1.714000000000000057e+02,0.000000000000000000e+00
1.715000000000000000e+02,0.000000000000000000e+00
1.715999999999999943e+02,0.000000000000000000e+00
1.716999999999999886e+02,0.000000000000000000e+00
1.717999999999999829e+02,0.000000000000000000e+00
1.719000000000000057e+02,0.000000000000000000e+00
1.720000000000000000e+02,0.000000000000000000e+00
1.720999999999999943e+02,0.000000000000000000e+00
1.721999999999999886e+02,0.000000000000000000e+00
1.722999999999999829e+02,0.000000000000000000e+00
1.724000000000000057e+02,0.000000000000000000e+00
1.725000000000000000e+02,0.000000000000000000e+00
1.725999999999999943e+02,0.000000000000000000e+00
1.726999999999999886e+02,0.000000000000000000e+00
1.727999999999999829e+02,0.000000000000000000e+00
1.729000000000000057e+02,0.000000000000000000e+00
1.730000000000000000e+02,0.000000000000000000e+00
1.730999999999999943e+02,0.000000000000000000e+00
1.731999999999999886e+02,0.000000000000000000e+00
1.732999999999999829e+02,0.000000000000000000e+00
1.734000000000000057e+02,0.000000000000000000e+00
1.735000000000000000e+02,0.000000000000000000e+00
1.735999999999999943e+02,0.000000000000000000e+00
1.736999999999999886e+02,0.000000000000000000e+00
1.737999999999999829e+02,0.000000000000000000e+00
1.739000000000000057e+02,0.000000000000000000e+00
1.740000000000000000e+02,0.000000000000000000e+00
1.740999999999999943e+02,0.000000000000000000e+00
1.741999999999999886e+02,0.000000000000000000e+00
1.742999999999999829e+02,0.000000000000000000e+00
1.744000000000000057e+02,0.000000000000000000e+00
1.745000000000000000e+02,0.000000000000000000e+00
1.745999999999999943e+02,0.000000000000000000e+00
1.746999999999999886e+02,0.000000000000000000e+00
1.747999999999999829e+02,0.000000000000000000e+00
1.749000000000000057e+02,0.000000000000000000e+00
1.750000000000000000e+02,0.000000000000000000e+00
1.750999999999999943e+02,0.000000000000000000e+00
1.751999999999999886e+02,0.000000000000000000e+00
1.752999999999999829e+02,0.000000000000000000e+00
1.754000000000000057e+02,0.000000000000000000e+00
1.755000000000000000e+02,0.000000000000000000e+00
1.755999999999999943e+02,0.000000000000000000e+00
1.756999999999999886e+02,0.000000000000000000e+00
1.757999999999999829e+02,0.000000000000000000e+00
1.759000000000000057e+02,0.000000000000000000e+00
1.760000000000000000e+02,0.000000000000000000e+00
1.760999999999999943e+02,0.000000000000000000e+00
1.761999999999999886e+02,0.000000000000000000e+00
1.762999999999999829e+02,0.000000000000000000e+00
1.764000000000000057e+02,0.000000000000000000e+00
1.765000000000000000e+02,0.000000000000000000e+00
1.765999999999999943e+02,0.000000000000000000e+00
1.766999999999999886e+02,0.000000000000000000e+00
1.767999999999999829e+02,0.000000000000000000e+00
1.769000000000000057e+02,0.000000000000000000e+00
1.770000000000000000e+02,0.000000000000000000e+00
1.770999999999999943e+02,0.000000000000000000e+00
1.771999999999999886e+02,0.000000000000000000e+00
1.772999999999999829e+02,0.000000000000000000e+00
1.774000000000000057e+02,0.000000000000000000e+00
1.775000000000000000e+02,0.000000000000000000e+00
1.775999999999999943e+02,0.000000000000000000e+00
1.776999999999999886e+02,0.000000000000000000e+00
1.777999999999999829e+02,0.000000000000000000e+00
1.779000000000000057e+02,0.000000000000000000e+00
1.780000000000000000e+02,0.000000000000000000e+00
1.780999999999999943e+02,0.000000000000000000e+00
1.781999999999999886e+02,0.000000000000000000e+00
1.782999999999999829e+02,0.000000000000000000e+00
1.784000000000000057e+02,0.000000000000000000e+00
1.785000000000000000e+02,0.000000000000000000e+00
1.785999999999999943e+02,0.000000000000000000e+00
1.786999999999999886e+02,0.000000000000000000e+00
1.787999999999999829e+02,0.000000000000000000e+00
1.789000000000000057e+02,0.000000000000000000e+00
1.790000000000000000e+02,0.000000000000000000e+00
1.790999999999999943e+02,0.000000000000000000e+00
1.791999999999999886e+02,0.000000000000000000e+00
1.792999999999999829e+02,0.000000000000000000e+00
1.794000000000000057e+02,0.000000000000000000e+00
1.795000000000000000e+02,0.000000000000000000e+00
1.795999999999999943e+02,0.000000000000000000e+00
1.796999999999999886e+02,0.000000000000000000e+00
1.797999999999999829e+02,0.000000000000000000e+00
1.799000000000000057e+02,0.000000000000000000e+00
1.800000000000000000e+02,0.000000000000000000e+00
1.800999999999999943e+02,0.000000000000000000e+00
1.801999999999999886e+02,0.000000000000000000e+00
1.802999999999999829e+02,0.000000000000000000e+00
1.804000000000000057e+02,0.000000000000000000e+00
1.805000000000000000e+02,0.000000000000000000e+00
1.805999999999999943e+02,0.000000000000000000e+00
1.806999999999999886e+02,0.000000000000000000e+00
1.807999999999999829e+02,0.000000000000000000e+00
1.809000000000000057e+02,0.000000000000000000e+00
1.810000000000000000e+02,0.000000000000000000e+00
1.810999999999999943e+02,0.000000000000000000e+00
1.811999999999999886e+02,0.000000000000000000e+00
1.812999999999999829e+02,0.000000000000000000e+00
1.814000000000000057e+02,0.000000000000000000e+00
1.815000000000000000e+02,0.000000000000000000e+00
1.815999999999999943e+02,0.000000000000000000e+00
1.816999999999999886e+02,0.000000000000000000e+00
1.817999999999999829e+02,0.000000000000000000e+00
1.819000000000000057e+02,0.000000000000000000e+00
1.820000000000000000e+02,0.000000000000000000e+00
1.820999999999999943e+02,0.000000000000000000e+00
1.821999999999999886e+02,0.000000000000000000e+00
1.822999999999999829e+02,0.000000000000000000e+00
1.824000000000000057e+02,0.000000000000000000e+00
1.825000000000000000e+02,0.000000000000000000e+00
1.825999999999999943e+02,0.000000000000000000e+00
1.826999999999999886e+02,0.000000000000000000e+00
1.827999999999999829e+02,0.000000000000000000e+00
1.829000000000000057e+02,0.000000000000000000e+00
1.830000000000000000e+02,0.000000000000000000e+00
1.830999999999999943e+02,0.000000000000000000e+00
1.831999999999999886e+02,0.000000000000000000e+00
1.832999999999999829e+02,0.000000000000000000e+00
1.834000000000000057e+02,0.000000000000000000e+00
1.835000000000000000e+02,0.000000000000000000e+00
1.835999999999999943e+02,0.000000000000000000e+00
1.836999999999999886e+02,0.000000000000000000e+00
1.837999999999999829e+02,0.000000000000000000e+00
1.839000000000000057e+02,0.000000000000000000e+00
1.840000000000000000e+02,0.000000000000000000e+00
1.840999999999999943e+02,0.000000000000000000e+00
1.841999999999999886e+02,0.000000000000000000e+00
1.842999999999999829e+02,0.000000000000000000e+00
1.844000000000000057e+02,0.000000000000000000e+00
1.845000000000000000e+02,0.000000000000000000e+00
1.845999999999999943e+02,0.000000000000000000e+00
1.846999999999999886e+02,0.000000000000000000e+00
1.847999999999999829e+02,0.000000000000000000e+00
1.849000000000000057e+02,0.000000000000000000e+00
1.850000000000000000e+02,0.000000000000000000e+00
1.850999999999999943e+02,0.000000000000000000e+00
1.851999999999999886e+02,0.000000000000000000e+00
1.852999999999999829e+02,0.000000000000000000e+00
1.854000000000000057e+02,0.000000000000000000e+00
1.855000000000000000e+02,0.000000000000000000e+00
1.855999999999999943e+02,0.000000000000000000e+00
1.856999999999999886e+02,0.000000000000000000e+00
1.857999999999999829e+02,0.000000000000000000e+00
1.859000000000000057e+02,0.000000000000000000e+00
1.860000000000000000e+02,0.000000000000000000e+00
1.860999999999999943e+02,0.000000000000000000e+00
1.861999999999999886e+02,0.000000000000000000e+00
1.862999999999999829e+02,0.000000000000000000e+00
1.864000000000000057e+02,0.000000000000000000e+00
1.865000000000000000e+02,0.000000000000000000e+00
1.865999999999999943e+02,0.000000000000000000e+00
1.866999999999999886e+02,0.000000000000000000e+00
1.867999999999999829e+02,0.000000000000000000e+00
1.869000000000000057e+02,0.000000000000000000e+00
1.870000000000000000e+02,0.000000000000000000e+00
1.870999999999999943e+02,0.000000000000000000e+00
1.871999999999999886e+02,0.000000000000000000e+00
1.872999999999999829e+02,0.000000000000000000e+00
1.874000000000000057e+02,0.000000000000000000e+00
1.875000000000000000e+02,0.000000000000000000e+00
1.875999999999999943e+02,0.000000000000000000e+00
1.876999999999999886e+02,0.000000000000000000e+00
1.877999999999999829e+02,0.000000000000000000e+00
1.879000000000000057e+02,0.000000000000000000e+00
1.880000000000000000e+02,0.000000000000000000e+00
1.880999999999999943e+02,0.000000000000000000e+00
1.881999999999999886e+02,0.000000000000000000e+00
1.882999999999999829e+02,0.000000000000000000e+00
1.884000000000000057e+02,0.000000000000000000e+00
1.885000000000000000e+02,0.000000000000000000e+00
1.885999999999999943e+02,0.000000000000000000e+00
1.886999999999999886e+02,0.000000000000000000e+00
1.887999999999999829e+02,0.000000000000000000e+00
1.889000000000000057e+02,0.000000000000000000e+00
1.890000000000000000e+02,0.000000000000000000e+00
1.890999999999999943e+02,0.000000000000000000e+00
1.891999999999999886e+02,0.000000000000000000e+00
1.892999999999999829e+02,0.000000000000000000e+00
1.894000000000000057e+02,0.000000000000000000e+00
1.895000000000000000e+02,0.000000000000000000e+00
1.895999999999999943e+02,0.000000000000000000e+00
1.896999999999999886e+02,0.000000000000000000e+00
1.897999999999999829e+02,0.000000000000000000e+00
1.899000000000000057e+02,0.000000000000000000e+00
1.900000000000000000e+02,0.000000000000000000e+00
1.900999999999999943e+02,0.000000000000000000e+00
1.901999999999999886e+02,0.000000000000000000e+00
1.902999999999999829e+02,0.000000000000000000e+00
1.904000000000000057e+02,0.000000000000000000e+00
1.905000000000000000e+02,0.000000000000000000e+00
1.905999999999999943e+02,0.000000000000000000e+00
1.906999999999999886e+02,0.000000000000000000e+00
1.907999999999999829e+02,0.000000000000000000e+00
1.909000000000000057e+02,0.000000000000000000e+00
1.910000000000000000e+02,0.000000000000000000e+00
1.910999999999999943e+02,0.000000000000000000e+00
1.911999999999999886e+02,0.000000000000000000e+00
1.912999999999999829e+02,0.000000000000000000e+00
1.914000000000000057e+02,0.000000000000000000e+00
1.915000000000000000e+02,0.000000000000000000e+00
1.915999999999999943e+02,0.000000000000000000e+00
1.916999999999999886e+02,0.000000000000000000e+00
1.917999999999999829e+02,0.000000000000000000e+00
1.919000000000000057e+02,0.000000000000000000e+00
1.920000000000000000e+02,0.000000000000000000e+00
1.920999999999999943e+02,0.000000000000000000e+00
1.921999999999999886e+02,0.000000000000000000e+00
1.922999999999999829e+02,0.000000000000000000e+00
1.924000000000000057e+02,0.000000000000000000e+00
1.925000000000000000e+02,0.000000000000000000e+00
1.925999999999999943e+02,0.000000000000000000e+00
1.926999999999999886e+02,0.000000000000000000e+00
1.927999999999999829e+02,0.000000000000000000e+00
1.929000000000000057e+02,0.000000000000000000e+00
1.930000000000000000e+02,0.000000000000000000e+00
1.930999999999999943e+02,0.000000000000000000e+00
1.931999999999999886e+02,0.000000000000000000e+00
1.932999999999999829e+02,0.000000000000000000e+00
1.934000000000000057e+02,0.000000000000000000e+00
1.935000000000000000e+02,0.000000000000000000e+00
1.935999999999999943e+02,0.000000000000000000e+00
1.936999999999999886e+02,0.000000000000000000e+00
1.937999999999999829e+02,0.000000000000000000e+00
1.939000000000000057e+02,0.000000000000000000e+00
1.940000000000000000e+02,0.000000000000000000e+00
1.940999999999999943e+02,0.000000000000000000e+00
1.941999999999999886e+02,0.000000000000000000e+00
1.942999999999999829e+02,0.000000000000000000e+00
1.944000000000000057e+02,0.000000000000000000e+00
1.945000000000000000e+02,0.000000000000000000e+00
1.945999999999999943e+02,0.000000000000000000e+00
1.946999999999999886e+02,0.000000000000000000e+00
1.947999999999999829e+02,0.000000000000000000e+00
1.949000000000000057e+02,0.000000000000000000e+00
1.950000000000000000e+02,0.000000000000000000e+00
1.950999999999999943e+02,0.000000000000000000e+00
1.951999999999999886e+02,0.000000000000000000e+00
1.952999999999999829e+02,0.000000000000000000e+00
1.954000000000000057e+02,0.000000000000000000e+00
1.955000000000000000e+02,0.000000000000000000e+00
1.955999999999999943e+02,0.000000000000000000e+00
1.956999999999999886e+02,0.000000000000000000e+00
1.957999999999999829e+02,0.000000000000000000e+00
1.959000000000000057e+02,0.000000000000000000e+00
1.960000000000000000e+02,0.000000000000000000e+00
1.960999999999999943e+02,0.000000000000000000e+00
1.961999999999999886e+02,0.000000000000000000e+00
1.962999999999999829e+02,0.000000000000000000e+00
1.964000000000000057e+02,0.000000000000000000e+00
1.965000000000000000e+02,0.000000000000000000e+00
1.965999999999999943e+02,0.000000000000000000e+00
1.966999999999999886e+02,0.000000000000000000e+00
1.967999999999999829e+02,0.000000000000000000e+00
1.969000000000000057e+02,0.000000000000000000e+00
1.970000000000000000e+02,0.000000000000000000e+00
1.970999999999999943e+02,0.000000000000000000e+00
1.971999999999999886e+02,0.000000000000000000e+00
1.972999999999999829e+02,0.000000000000000000e+00
1.974000000000000057e+02,0.000000000000000000e+00
1.975000000000000000e+02,0.000000000000000000e+00
1.975999999999999943e+02,0.000000000000000000e+00
1.976999999999999886e+02,0.000000000000000000e+00
1.977999999999999829e+02,0.000000000000000000e+00
1.979000000000000057e+02,0.000000000000000000e+00
1.980000000000000000e+02,0.000000000000000000e+00
1.980999999999999943e+02,0.000000000000000000e+00
1.981999999999999886e+02,0.000000000000000000e+00
1.982999999999999829e+02,0.000000000000000000e+00
1.984000000000000057e+02,0.000000000000000000e+00
1.985000000000000000e+02,0.000000000000000000e+00
1.985999999999999943e+02,0.000000000000000000e+00
1.986999999999999886e+02,0.000000000000000000e+00
1.987999999999999829e+02,0.000000000000000000e+00
1.989000000000000057e+02,0.000000000000000000e+00
1.990000000000000000e+02,0.000000000000000000e+00
1.990999999999999943e+02,0.000000000000000000e+00
1.991999999999999886e+02,0.000000000000000000e+00
1.992999999999999829e+02,0.000000000000000000e+00
1.994000000000000057e+02,0.000000000000000000e+00
1.995000000000000000e+02,0.000000000000000000e+00
1.995999999999999943e+02,0.000000000000000000e+00
1.996999999999999886e+02,0.000000000000000000e+00
1.997999999999999829e+02,0.000000000000000000e+00
1.999000000000000057e+02,0.000000000000000000e+00
2.000000000000000000e+02,0.000000000000000000e+00
